Division,WeightClassKg,Place,Name,Team,BodyweightKg,Best3SquatKg,Best3BenchKg,Best3DeadliftKg,TotalKg,Equipment,Event,Sex,BirthDate
Boys,51.71,1,Chad Hasty,Geronimo Navarro,46.99,77.11,52.16,99.79,229.06,Single-ply,SBD,M,
Boys,59.87,1,Amadeus Trevino,Lytle,58.47,102.06,68.04,102.06,272.16,Single-ply,SBD,M,
Boys,67.13,1,Dominic Reyes,Lytle,65.86,206.38,108.86,190.51,505.76,Single-ply,SBD,M,
Boys,67.13,2,Rene Jimenez,San Antonio Memorial,63,142.88,86.18,176.9,405.97,Single-ply,SBD,M,
Boys,67.13,3,Jesse Tavarez,San Antonio Memorial,65.54,138.35,83.91,136.08,358.34,Single-ply,SBD,M,
Boys,67.13,4,Noah Schwarzlose,Blanco,64.64,111.13,72.57,140.61,324.32,Single-ply,SBD,M,
Boys,67.13,DQ,Luis Guerro,Lytle,66.13,165.56,,,,Single-ply,SBD,M,
Boys,74.84,1,Marc Flores,Blanco,70.13,181.44,122.47,176.9,480.81,Single-ply,SBD,M,
Boys,74.84,2,Zeke Campos,Geronimo Navarro,73.94,179.17,120.2,181.44,480.81,Single-ply,SBD,M,
Boys,74.84,3,Jason Vega,Lytle,74.62,183.7,102.06,192.78,478.54,Single-ply,SBD,M,
Boys,74.84,4,Alex Villarreal,San Antonio Memorial,74.75,190.51,106.59,167.83,464.93,Single-ply,SBD,M,
Boys,74.84,5,Luke Fanno,Jourdanton,73.12,179.17,92.99,188.24,460.4,Single-ply,SBD,M,
Boys,74.84,6,Diego Chapa,Geronimo Navarro,67.45,145.15,95.25,156.49,396.89,Single-ply,SBD,M,
Boys,74.84,7,Nick Swarzlose,Geronimo Navarro,67.27,142.88,95.25,156.49,394.63,Single-ply,SBD,M,
Boys,74.84,8,Jordan Castillo,Jourdanton,73.57,142.88,92.99,142.88,378.75,Single-ply,SBD,M,
Boys,74.84,9,Hunter Langston,Blanco,71.85,113.4,90.72,156.49,360.61,Single-ply,SBD,M,
Boys,74.84,10,Hayden Toliver,Geronimo Navarro,69.9,131.54,83.91,140.61,356.07,Single-ply,SBD,M,
Boys,74.84,11,Grant Jones,Blanco,71.8,120.2,74.84,149.69,344.73,Single-ply,SBD,M,
Boys,74.84,12,Jonathan Castillo,Jourdanton,70.72,102.06,70.31,131.54,303.91,Single-ply,SBD,M,
Boys,82.1,1,Mack Berry,Geronimo Navarro,75.3,131.54,83.91,142.88,358.34,Single-ply,SBD,M,
Boys,82.1,2,Bennett Brock,Blanco,77.75,127.01,74.84,156.49,358.34,Single-ply,SBD,M,
Boys,82.1,3,Joseph Casarez,Jourdanton,77.47,113.4,79.38,149.69,342.46,Single-ply,SBD,M,
Boys,89.81,1,Rylan Wagner,Lytle,86.91,226.8,161.03,224.53,612.35,Single-ply,SBD,M,
Boys,89.81,2,Izacc Zamora,Geronimo Navarro,87.36,183.7,97.52,188.24,469.47,Single-ply,SBD,M,
Boys,89.81,3,Matthew Richardson,Geronimo Navarro,87.23,149.69,102.06,151.95,403.7,Single-ply,SBD,M,
Boys,89.81,4,Pedro Miranda,Blanco,82.28,138.35,81.65,145.15,365.14,Single-ply,SBD,M,
Boys,89.81,5,Mitch Dalland,Blanco,85.64,120.2,83.91,151.95,356.07,Single-ply,SBD,M,
Boys,89.81,6,Diego Valdez,Jourdanton,84.96,108.86,79.38,142.88,331.12,Single-ply,SBD,M,
Boys,89.81,7,Zach Staley,Jourdanton,85.41,106.59,65.77,115.67,288.03,Single-ply,SBD,M,
Boys,89.81,DQ,Fransico Arteaga,Blanco,86,106.59,,,,Single-ply,SBD,M,
Boys,99.79,1,Francisco Osoria,San Antonio Memorial,98.25,197.31,111.13,172.37,480.81,Single-ply,SBD,M,
Boys,99.79,2,Mario Diaz,Lytle,93.44,142.88,102.06,190.51,435.45,Single-ply,SBD,M,
Boys,99.79,3,Kolton Martinez,Blanco,97.89,129.27,117.93,133.81,381.02,Single-ply,SBD,M,
Boys,99.79,4,Donald Parks,Jourdanton,91.44,142.88,65.77,167.83,376.48,Single-ply,SBD,M,
Boys,99.79,5,Jayden Miller #3,Jourdanton,98.79,142.88,74.84,158.76,376.48,Single-ply,SBD,M,
Boys,99.79,6,Xavier Tijerina,Jourdanton,90.85,122.47,88.45,161.03,371.95,Single-ply,SBD,M,
Boys,109.77,1,Issac Paredes,Jourdanton,106.91,274.42,185.97,240.4,700.8,Single-ply,SBD,M,
Boys,109.77,2,Cole Booker,Geronimo Navarro,109.13,256.28,156.49,240.4,653.17,Single-ply,SBD,M,
Boys,109.77,3,Juan Lerma,Jourdanton,102.83,170.1,142.88,183.7,496.68,Single-ply,SBD,M,
Boys,124.74,1,Carter Holtkamp,Geronimo Navarro,122.7,254.01,170.1,235.87,659.98,Single-ply,SBD,M,
Boys,124.74,2,Reymundo Arellano,San Antonio Memorial,120.11,185.97,113.4,174.63,474,Single-ply,SBD,M,
Boys,124.74,3,Abraham Cruz,San Antonio Memorial,115.35,163.29,81.65,145.15,390.09,Single-ply,SBD,M,
Boys,139.71,1,Ivan Garcia,San Antonio Memorial,133.54,226.8,136.08,204.12,566.99,Single-ply,SBD,M,
Boys,139.71,2,Manuel Belmarez,San Antonio Memorial,135.9,215.46,131.54,190.51,537.51,Single-ply,SBD,M,
Boys,139.71,3,Trey Garner,Geronimo Navarro,139.53,142.88,102.06,158.76,403.7,Single-ply,SBD,M,
Boys,139.71,4,Tyler Martinez,Jourdanton,132.95,113.4,86.18,142.88,342.46,Single-ply,SBD,M,
Boys,139.71+,1,Sergio Hernandez,Geronimo Navarro,142.2,285.76,197.31,244.94,728.02,Single-ply,SBD,M,
