Sex,WeightClassKg,EntryDate,Name,BirthDate,Country,Bench1Kg,Bench2Kg,Bench3Kg,Best3BenchKg,Bench4Kg,TotalKg,BodyweightKg,Event,Equipment,Division,Place
M,48,2010-12-13,Mustafa Radhi,1990-12-02,Iraq,160,165,-170,165,,165,47.32,B,Raw,Open,2
M,48,2010-12-13,Omar Sami Hamadeh Qarada,1981-03-01,Jordan,167.5,-173.5,173.5,173.5,,173.5,46.55,B,Raw,Open,1
M,48,2010-12-13,Ilhom Tursunov,1978-09-02,Tajikistan,-130,-135,-135,,,,47.79,B,Raw,Open,DQ
M,48,2010-12-13,Eay Simay,1981-03-05,Laos,-152.5,155,-160,155,,155,47.45,B,Raw,Open,4
M,48,2010-12-13,Farman Basha,1974-03-25,India,152.5,157.5,-160,157.5,,157.5,46.29,B,Raw,Open,3
M,48,2010-12-13,Samad Abbasi,1986-06-19,Iran,150,-157.5,-160,150,,150,47.52,B,Raw,Open,5
M,48,2010-12-13,Yingguo Xiao,1987-12-03,China,-130,-130,130,130,,130,45.8,B,Raw,Open,6
M,48,2010-12-13,Sanath Sisira Kumara Ranamuka Dewage,1971-05-10,Sri Lanka,-100,,,,,,47.89,B,Raw,Open,DQ
M,48,2010-12-13,Saber Mohammad Sultani,1984-11-06,Afghanistan,-70,80,-90,80,,80,44.05,B,Raw,Open,7
M,52,2010-12-13,Jacinto Herianto de Jesus Pereira,1980-01-01,East Timor,120,-125,-125,120,,120,51.93,B,Raw,Open,8
M,52,2010-12-13,Choochat Sukjarern,1975-12-01,Thailand,160,162.5,-167.5,162.5,,162.5,51.03,B,Raw,Open,2
M,52,2010-12-13,Sandun Wasana Perera Batapola Mudalige,1969-09-02,Sri Lanka,132.5,135,-140,135,,135,50.58,B,Raw,Open,6
M,52,2010-12-13,Pia Laophakdee,1989-12-12,Laos,125,-127.5,-130,125,,125,48.16,B,Raw,Open,7
M,52,2010-12-13,Yau Ngan Wong,1973-06-15,Hong Kong,-82.5,-82.5,-82.5,,,,51.55,B,Raw,Open,DQ
M,52,2010-12-13,Hussein Juboori,1982-04-22,Iraq,167.5,-170,-170,167.5,,167.5,51.38,B,Raw,Open,1
M,52,2010-12-13,Agustin Kitan,1976-08-06,Philippines,135,-145,147.5,147.5,,147.5,51.87,B,Raw,Open,4
M,52,2010-12-13,Van Phuc Nguyen,1981-10-06,Vietnam,-142.5,142.5,-147.5,142.5,,142.5,50.44,B,Raw,Open,5
M,52,2010-12-13,Himal Aryal,1980-06-20,Nepal,-52.5,-52.5,-52.5,,,,51.34,B,Raw,Open,DQ
M,52,2010-12-13,Jian Wang,1976-05-01,China,162.5,-165,-170,162.5,,162.5,51.6,B,Raw,Open,3
M,56,2010-12-14,Xiaoyou Yao,1982-07-07,China,150,-155,155,155,,155,54.5,B,Raw,Open,4
M,56,2010-12-14,Narong Kasanun,1977-07-04,Thailand,170,-172.5,-175,170,,170,55.39,B,Raw,Open,3
M,56,2010-12-14,Ahmad Dukhan,1982-06-23,Syria,147.5,-152.5,-152.5,147.5,,147.5,55.1,B,Raw,Open,6
M,56,2010-12-14,Mohammad Tarbash,1984-06-09,Jordan,142.5,150,-155,150,,150,54.69,B,Raw,Open,5
M,56,2010-12-14,Binh An Nguyen,1985-01-28,Vietnam,-147.5,-150,-150,,,,54.53,B,Raw,Open,DQ
M,56,2010-12-14,Mekan Agalikov,1988-09-28,Turkmenistan,-130,-130,-130,,,,52.7,B,Raw,Open,DQ
M,56,2010-12-14,Rasool Mohsin,1987-11-17,Iraq,-187.5,187.5,-195,187.5,,187.5,55.56,B,Raw,Open,1
M,56,2010-12-14,Sergey Shtaper,1976-10-06,Kazakhstan,110,-117.5,-117.5,110,,110,54.58,B,Raw,Open,8
M,56,2010-12-14,Seyed Yousef Yousefi Pashaki,1988-07-18,Iran,170,-175,175,175,,175,55.6,B,Raw,Open,2
M,56,2010-12-14,Badar Al Harthi,1980-02-06,Oman,145,-147.5,-147.5,145,,145,54.2,B,Raw,Open,7
M,60,2010-12-14,Hamzeh Mohammadi,1978-04-13,Iran,192.5,-197.5,197.5,197.5,-203.5,197.5,59.52,B,Raw,Open,1
M,60,2010-12-14,Hasan Al-Tameemi,1977-08-12,Iraq,-160,160,-162.5,160,,160,59.52,B,Raw,Open,5
M,60,2010-12-14,Van Hung Nguyen,1980-01-12,Vietnam,-157.5,-157.5,-157.5,,,,59.23,B,Raw,Open,DQ
M,60,2010-12-14,Rolando Maye,1966-11-22,Philippines,117.5,-125,-125,117.5,,117.5,59.09,B,Raw,Open,6
M,60,2010-12-14,Sodnompiljee Enkhbayar,1985-08-24,Mongolia,-140,-145,-145,,,,59.62,B,Raw,Open,DQ
M,60,2010-12-14,Quanxi Yang,1982-03-04,China,182.5,190,-197.5,190,,190,59.77,B,Raw,Open,3
M,60,2010-12-14,Thongsa Marasri,1975-01-30,Thailand,-180,-180,-180,,,,59.99,B,Raw,Open,DQ
M,60,2010-12-14,Nader Moradi,1982-09-21,Iran,190,195,-200,195,,195,59.91,B,Raw,Open,2
M,60,2010-12-14,Vikram Singh Adhikari,1979-10-09,India,160,-162.5,162.5,162.5,,162.5,59.87,B,Raw,Open,4
M,67.5,2010-12-15,Sergey Meladze,1980-04-01,Turkmenistan,170,180,-182.5,180,,180,64.42,B,Raw,Open,3
M,67.5,2010-12-15,Mohammed Mohammed,1979-06-27,Iraq,175,-182.5,-182.5,175,,175,65.8,B,Raw,Open,5
M,67.5,2010-12-15,Phouthavong Sisavengsouk,1980-01-01,Laos,-130,132.5,-140,132.5,,132.5,66.1,B,Raw,Open,10
M,67.5,2010-12-15,Lei Liu,1987-11-16,China,217.5,223.5,224,224,224.5,224,66.68,B,Raw,Open,1
M,67.5,2010-12-15,Fadi Ahmad,1977-12-08,Syria,175,180,-182.5,180,,180,66.21,B,Raw,Open,4
M,67.5,2010-12-15,Ibrahim Mustafa,1977-04-28,Saudi Arabia,145,-152.5,152.5,152.5,,152.5,63.95,B,Raw,Open,8
M,67.5,2010-12-15,Kampa Pongtao,1977-11-02,Thailand,-170,170,-175,170,,170,66.32,B,Raw,Open,6
M,67.5,2010-12-15,Rajinder Singh Rahelu,1973-07-22,India,-182.5,-182.5,-182.5,,,,67.25,B,Raw,Open,DQ
M,67.5,2010-12-15,Abdelkareem Mohmmad Ahmad Khattab,1991-09-04,Jordan,162.5,170,-175,170,,170,66.93,B,Raw,Open,7
M,67.5,2010-12-15,Ali Hosseini,1977-03-21,Iran,-197.5,197.5,210,210,,210,66.55,B,Raw,Open,2
M,67.5,2010-12-15,Jung-Hoon Moon,1980-01-29,South Korea,130,140,145,145,,145,67.06,B,Raw,Open,9
M,75,2010-12-15,Mariappan Perumal,1958-02-25,Malaysia,-172.5,-172.5,177.5,177.5,,177.5,73.75,B,Raw,Open,3
M,75,2010-12-15,Prakash Mohare,1977-07-24,India,147.5,-152.5,-152.5,147.5,,147.5,70.03,B,Raw,Open,7
M,75,2010-12-15,Bayramgeldi Saparov,1972-11-18,Turkmenistan,140,150,-155,150,,150,73.2,B,Raw,Open,6
M,75,2010-12-15,Peng Hu,1989-01-26,China,190,200,-210,200,,200,72.88,B,Raw,Open,2
M,75,2010-12-15,Bhushan Kasekar,1977-01-18,India,-170,-170,-170,,,,74.4,B,Raw,Open,DQ
M,75,2010-12-15,Abdullah Alreqaie,1996-10-17,Kuwait,-100,-105,-105,,,,70.93,B,Raw,Open,DQ
M,75,2010-12-15,Hajime Ujiro,1973-01-28,Japan,160,-170,-177.5,160,,160,74.05,B,Raw,Open,5
M,75,2010-12-15,Majid Farzin,1984-04-29,Iran,210,-220,220,220,,220,74.53,B,Raw,Open,1
M,75,2010-12-15,Prasit Thongdee,1981-11-19,Thailand,172.5,175,177.5,177.5,,177.5,74.83,B,Raw,Open,4
M,75,2010-12-15,Ali Mashbari,1980-06-05,Saudi Arabia,115,-125,-125,115,,115,69,B,Raw,Open,8
M,82.5,2010-12-16,Seyed Hamed Solhipour Avanji,1989-05-22,Iran,-205,205,215,215,,215,80.37,B,Raw,Open,2
M,82.5,2010-12-16,Issam Al Balushi,1977-02-07,Oman,-175,175,-180,175,,175,80.36,B,Raw,Open,7
M,82.5,2010-12-16,Duk-Hwan Bong,1963-05-13,South Korea,180,-185,-190,180,,180,80.49,B,Raw,Open,6
M,82.5,2010-12-16,Janet Zhakiyen,1967-07-26,Kazakhstan,-135,135,142.5,142.5,,142.5,80.47,B,Raw,Open,9
M,82.5,2010-12-16,Ovezgeldi Ordjiev,1968-10-31,Turkmenistan,-175,-175,-185,,,,81.07,B,Raw,Open,DQ
M,82.5,2010-12-16,Hideki Odo,1974-10-17,Japan,190,195,-200,195,,195,81.3,B,Raw,Open,4
M,82.5,2010-12-16,Abdulla Ismail Bin Farhan,1992-09-22,UAE,-137.5,,,,,,81.54,B,Raw,Open,DQ
M,82.5,2010-12-16,Thaer Al-Ali,1976-01-03,Iraq,215,-220,-222.5,215,,215,82.06,B,Raw,Open,3
M,82.5,2010-12-16,Sachin Chaudhary,1983-09-30,India,-182.5,182.5,-185,182.5,,182.5,82.5,B,Raw,Open,5
M,82.5,2010-12-16,Nurul Azhar Norrin,1986-06-21,Malaysia,160,165,170,170,,170,81.03,B,Raw,Open,8
M,82.5,2010-12-16,Xiao-Fei Gu,1989-03-14,China,215,-220,-222.5,215,222.5,215,79.48,B,Raw,Open,1
M,82.5,2010-12-16,Ronaldo Viceral,1970-05-10,Philippines,125,135,-142.5,135,,135,79.99,B,Raw,Open,10
M,90,2010-12-17,Huichao Cai,1983-10-22,China,220,-225,225,225,,225,89.62,B,Raw,Open,1
M,90,2010-12-17,Mohd Shahmil Md Saad,1986-05-14,Malaysia,170,175,-180,175,,175,86.96,B,Raw,Open,6
M,90,2010-12-17,Somsak Kakuen,1980-11-24,Thailand,185,-190,-192.5,185,,185,86.34,B,Raw,Open,5
M,90,2010-12-17,Jabbar Jaber,1977-04-18,Iraq,192.5,-200,-207.5,192.5,,192.5,88,B,Raw,Open,4
M,90,2010-12-17,Ali Sadeghzadeh Salmani,1978-11-30,Iran,-205,205,-215,205,,205,85.19,B,Raw,Open,3
M,90,2010-12-17,Mohammed Khamis Khalaf,1969-02-23,UAE,210,215,-220,215,,215,88.59,B,Raw,Open,2
M,90,2010-12-17,Toktorbek Aidyraliev,1980-05-19,Kyrgyzstan,140,147.5,150,150,,150,88.46,B,Raw,Open,7
M,100,2010-12-17,Sung Yun Jung,1983-11-19,South Korea,-165,-165,-165,,,,98.78,B,Raw,Open,DQ
M,100,2010-12-17,Hamdo Sallat,1980-06-15,Syria,-195,195,-197.5,195,,195,97.15,B,Raw,Open,3
M,100,2010-12-17,Ganbaatar Banid,1978-03-15,Mongolia,-145,145,-152.5,145,,145,99.79,B,Raw,Open,8
M,100,2010-12-17,Opas Jaithon,1976-06-05,Thailand,-165,-170,-170,,,,98.93,B,Raw,Open,DQ
M,100,2010-12-17,Haidarah Abdallah Hasan Alkawamleh,1979-08-16,Jordan,192.5,-200,-200,192.5,,192.5,94.61,B,Raw,Open,4
M,100,2010-12-17,Abdulmonem Al Najar,1979-03-26,Saudi Arabia,145,-155,-155,145,,145,96.92,B,Raw,Open,7
M,100,2010-12-17,Bassam Al Hawal,1972-08-23,Saudi Arabia,185,195,-202.5,195,,195,96.8,B,Raw,Open,2
M,100,2010-12-17,Katsuhito Nakatsuji,1969-11-23,Japan,190,-200,-200,190,,190,98.71,B,Raw,Open,5
M,100,2010-12-17,Virender,1984-01-13,India,150,160,-165,160,,160,98.38,B,Raw,Open,6
M,100,2010-12-17,Pingguang Tian,1988-06-09,China,-217.5,217.5,225.5,225.5,-227.5,225.5,96.67,B,Raw,Open,1
M,100+,2010-12-18,Arnest Reginold Veniton,1970-09-09,Sri Lanka,-155,-155,160,160,,160,110.39,B,Raw,Open,7
M,100+,2010-12-18,Mashal Alkhazai,1979-11-30,Saudi Arabia,160,170,-180,170,,170,115.74,B,Raw,Open,6
M,100+,2010-12-18,Kazem Rajabi Golojeh,1977-07-23,Iran,260,-265,-286,260,,260,149.46,B,Raw,Open,2
M,100+,2010-12-18,Siamand Rahman,1988-03-21,Iran,270,282.5,287.5,287.5,290,287.5,160,B,Raw,Open,1
M,100+,2010-12-18,Dong Qi,1981-11-24,China,230,237.5,-240,237.5,,237.5,103.11,B,Raw,Open,4
M,100+,2010-12-18,Faris Saadoon Abed Al-Ageeli,1974-05-20,Iraq,-255,255,,255,,255,117.39,B,Raw,Open,3
M,100+,2010-12-18,Ahmed Khamis Albaloushi,1974-12-01,UAE,190,-197.5,-197.5,190,,190,110.59,B,Raw,Open,5
F,40,2010-12-13,Bharati Somkuwar,1979-04-11,India,60,-65,-65,60,,60,37,B,Raw,Open,5
F,40,2010-12-13,Tiecan Fu,1982-08-15,China,82.5,85,87.5,87.5,,87.5,39.68,B,Raw,Open,1
F,40,2010-12-13,Ni Nengah Widiasih,1992-12-12,Indonesia,65,70,-80,70,,70,38.81,B,Raw,Open,4
F,40,2010-12-13,Roshani Prakash Rinke,1984-07-29,India,55,-60,-60,55,,55,39.88,B,Raw,Open,7
F,40,2010-12-13,Yim-Hung Lam,1958-03-06,Hong Kong,60,-62.5,-62.5,60,,60,37.13,B,Raw,Open,6
F,40,2010-12-13,Thi Hong Nguyen,1979-03-17,Vietnam,-80,-82.5,82.5,82.5,,82.5,38.64,B,Raw,Open,3
F,40,2010-12-13,Noura Baddour,1984-11-13,Syria,77.5,82.5,-87.5,82.5,,82.5,35.89,B,Raw,Open,2
F,44,2010-12-14,Latika Mane,1980-01-02,India,50,52.5,-55,52.5,,52.5,42.27,B,Raw,Open,4
F,44,2010-12-14,Zhe Cui,1986-12-01,China,90,95,-100,95,,95,40.26,B,Raw,Open,1
F,44,2010-12-14,Kabira Askarova,1976-09-29,Kazakhstan,55,60,-62.5,60,,60,43.58,B,Raw,Open,3
F,44,2010-12-14,Achelle Guion,1971-12-29,Philippines,-70,70,-75,70,,70,43.04,B,Raw,Open,2
F,48,2010-12-14,Yunki Shin,1968-03-12,South Korea,60,65,-67.5,65,,65,45.86,B,Raw,Open,3
F,48,2010-12-14,Cuijuan Xiao,1986-04-19,China,105,-110,-110,105,,105,47.8,B,Raw,Open,2
F,48,2010-12-14,Shanshan Shi,1988-12-13,China,107.5,-110,110,110,,110,47.21,B,Raw,Open,1
F,52,2010-12-16,Thi Nga Dinh,1971-11-04,Vietnam,-75,75,-80,75,,75,49.62,B,Raw,Open,3
F,52,2010-12-16,Fatema Alhasan,1977-10-10,Syria,-87.5,87.5,90,90,,90,50.9,B,Raw,Open,2
F,52,2010-12-16,Gulbanu Abdykhalykova,1972-09-15,Kazakhstan,62.5,-70,-70,62.5,,62.5,51.27,B,Raw,Open,4
F,52,2010-12-16,Hongchan Wang,1983-11-25,China,95,100,-105,100,,100,51.79,B,Raw,Open,1
F,52,2010-12-16,Marina Panina,1991-01-25,Turkmenistan,55,60,-65,60,,60,50.54,B,Raw,Open,5
F,56,2010-12-16,Somkhoun Anon,1977-10-14,Thailand,-100,100,-110,100,,100,55.64,B,Raw,Open,2
F,56,2010-12-16,Dhikra Saleem,1981-12-29,Iraq,85,-90,-90,85,,85,55.55,B,Raw,Open,3
F,56,2010-12-16,Yan Yang,1985-11-13,China,105,107.5,-110,107.5,,107.5,54.83,B,Raw,Open,1
F,56,2010-12-16,Rajdeep Kaur,1987-02-17,India,-57.5,-57.5,-57.5,,,,54.21,B,Raw,Open,DQ
F,60,2010-12-16,Jianjin Cui,1988-07-09,China,110,-120.5,-120.5,110,,110,57.38,B,Raw,Open,1
F,60,2010-12-16,Ya-Hsuan Lin,1976-08-11,Taiwan,80,85,-87.5,85,,85,58.66,B,Raw,Open,5
F,60,2010-12-16,Lee Chan Siow,1971-02-27,Malaysia,90,92.5,95,95,,95,58.23,B,Raw,Open,2
F,60,2010-12-16,Hyun Hee Choi,1967-10-03,South Korea,75,80,85,85,,85,58.69,B,Raw,Open,6
F,60,2010-12-16,Natali Elias,1980-05-25,Syria,-87.5,87.5,-92.5,87.5,,87.5,56.88,B,Raw,Open,4
F,60,2010-12-16,Mayagozel Ekeyeva,1986-05-05,Turkmenistan,80,90,-95,90,,90,59.24,B,Raw,Open,3
F,67.5,2010-12-17,Valentina Zavarayeva,1987-01-25,Turkmenistan,80,-90,,80,,80,60.41,B,Raw,Open,4
F,67.5,2010-12-17,Zhiping Wang,1981-03-29,China,95,100,-110,100,,100,60.64,B,Raw,Open,2
F,67.5,2010-12-17,Jin Kyoung Yun,1967-09-09,South Korea,65,70,-75,70,,70,63.86,B,Raw,Open,5
F,67.5,2010-12-17,Arawan Bootpo,1984-10-10,Thailand,105,107.5,115,115,,115,65.22,B,Raw,Open,1
F,67.5,2010-12-17,Fatimah Wagimin,1978-11-06,Malaysia,95,-100,100,100,,100,65.56,B,Raw,Open,3
F,75,2010-12-17,Tzu-Hui Lin,1981-11-05,Taiwan,130,-135,135,135,,135,74.27,B,Raw,Open,1
F,75,2010-12-17,Lyazat Salimzhanova,1961-08-28,Kazakhstan,-87.5,87.5,-95,87.5,,87.5,73.84,B,Raw,Open,5
F,75,2010-12-17,Rasha Alshikh,1975-04-10,Syria,105,112.5,-120,112.5,,112.5,73.7,B,Raw,Open,2
F,75,2010-12-17,Oguljennet Orjiyeva,1963-11-10,Turkmenistan,75,80,-92.5,80,,80,74.02,B,Raw,Open,6
F,75,2010-12-17,Phanumas Yimmak,1973-12-13,Thailand,85,90,-92.5,90,,90,67.83,B,Raw,Open,4
F,75,2010-12-17,Tharwh Tayseer Hamdan Alhajaj,1973-01-01,Jordan,92.5,-95,-95,92.5,,92.5,73.99,B,Raw,Open,3
F,82.5,2010-12-18,Sharifah Raudzah Syed Akil,1973-08-24,Malaysia,100,-110,-110,100,,100,81.89,B,Raw,Open,2
F,82.5,2010-12-18,Huda Ali,1977-03-03,Iraq,110,-112.5,-112.5,110,,110,81.91,B,Raw,Open,1
F,82.5+,2010-12-18,Fatmah Rashed Alkaabi,1981-09-08,UAE,92.5,97.5,-100,97.5,,97.5,107.5,B,Raw,Open,4
F,82.5+,2010-12-18,Adeline Ancheta,1973-12-13,Philippines,-115,115,-122.5,115,,115,102.68,B,Raw,Open,2
F,82.5+,2010-12-18,Fengmei Li,1974-09-03,China,120,125,130,130,,130,86.49,B,Raw,Open,1
F,82.5+,2010-12-18,Hyun Jung Lee,1986-05-04,South Korea,90,-95,97.5,97.5,,97.5,102.16,B,Raw,Open,3
M,56,2010-12-14,Carlito Pereira,1983-11-10,,,,,,,,,B,Raw,Open,NS
M,56,2010-12-14,Mohammed Shahjada,1970-10-05,,,,,,,,,B,Raw,Open,NS
M,60,2010-12-14,Billy Zeth Makal,1972-09-26,,,,,,,,,B,Raw,Open,NS
M,67.5,2010-12-15,Khayrullo Abdurahimov,1978-08-20,,,,,,,,,B,Raw,Open,NS
M,67.5,2010-12-15,Musa Sayfullov,1977-12-07,,,,,,,,,B,Raw,Open,NS
M,75,2010-12-15,Mutaz Aljuneidi,1976-04-02,,,,,,,,,B,Raw,Open,NS
M,75,2010-12-15,Parviz Odinaev,1982-12-02,,,,,,,,,B,Raw,Open,NS
M,100+,2010-12-18,Ali Abdulla M A Mohamed,1959-08-12,,,,,,,,,B,Raw,Open,NS
F,56,2010-12-16,Liliana Da Costa Silva Misquita,1992-06-22,,,,,,,,,B,Raw,Open,NS
