Division,WeightClassKg,Place,Name,Team,BodyweightKg,Best3SquatKg,Best3BenchKg,Best3DeadliftKg,TotalKg,Equipment,Event,Sex
Boys,51.71,1,Chris Sage,Bryan,50.71,129.27,72.57,163.29,365.14,Single-ply,SBD,M
Boys,51.71,2,Daniel Herrera,Navasota,51.35,129.27,83.91,138.35,351.53,Single-ply,SBD,M
Boys,51.71,3,Rushi Patel,College Station,50.89,140.61,63.5,136.08,340.19,Single-ply,SBD,M
Boys,51.71,4,Isiah Reza,College Station,51.44,140.61,58.97,129.27,328.85,Single-ply,SBD,M
Boys,51.71,5,Juan Padron,Navasota,50.35,122.47,61.23,120.2,303.91,Single-ply,SBD,M
Boys,51.71,6,Osbaldo Esquivel,Bryan,49.8,97.52,70.31,127.01,294.84,Single-ply,SBD,M
Boys,51.71,7,Jahir Aldaba,Navasota,49.9,104.33,58.97,108.86,272.16,Single-ply,SBD,M
Boys,51.71,8,Jack Lockhart,Conroe The Woodlands,50.89,95.25,65.77,111.13,272.16,Single-ply,SBD,M
Boys,51.71,9,Cody Burkland,Sealy,50.89,90.72,70.31,111.13,272.16,Single-ply,SBD,M
Boys,51.71,10,Noel Spurlock,Montgomery,49.8,99.79,47.63,115.67,263.08,Single-ply,SBD,M
Boys,51.71,11,Al Gardner,Sealy,51.07,99.79,68.04,90.72,258.55,Single-ply,SBD,M
Boys,51.71,12,Nate Colburn,Montgomery,40.73,106.59,45.36,102.06,254.01,Single-ply,SBD,M
Boys,51.71,13,Tristan Josephson,Magnolia,51.71,90.72,45.36,111.13,247.21,Single-ply,SBD,M
Boys,51.71,14,Ian Alvarez,Conroe The Woodlands,49.58,90.72,49.9,99.79,240.4,Single-ply,SBD,M
Boys,55.79,1,Taylor Riley,Magnolia,55.79,154.22,97.52,176.9,428.64,Single-ply,SBD,M
Boys,55.79,2,Nicholas Daigle,Waller,55.34,124.74,58.97,158.76,342.46,Single-ply,SBD,M
Boys,55.79,3,Bryan McNeill,Rogers,54.07,127.01,74.84,138.35,340.19,Single-ply,SBD,M
Boys,55.79,4,Brandon Powell,Caldwell,55.79,120.2,70.31,122.47,312.98,Single-ply,SBD,M
Boys,55.79,5,Michael Hushka,Conroe The Woodlands,54.07,95.25,65.77,136.08,297.1,Single-ply,SBD,M
Boys,55.79,DQ,Kyle Gibson,College Station A&M; Cons,55.79,97.52,,,,Single-ply,SBD,M
Boys,55.79,DQ,Ian Campbell,Navasota,55.43,145.15,,,,Single-ply,SBD,M
Boys,59.87,1,Josh Burkhalter,Caldwell,59.87,192.78,74.84,163.29,430.91,Single-ply,SBD,M
Boys,59.87,2,Hunter Berry,Sealy,59.15,172.37,83.91,161.03,417.3,Single-ply,SBD,M
Boys,59.87,3,Frank Cobio,Brookshire Royal,58.79,154.22,95.25,163.29,412.77,Single-ply,SBD,M
Boys,59.87,4,James Traylor,Montgomery,58.88,156.49,83.91,170.1,410.5,Single-ply,SBD,M
Boys,59.87,5,Alex Ellison,Bryan Rudder,59.15,172.37,79.38,154.22,405.97,Single-ply,SBD,M
Boys,59.87,6,Zachary Baker,Hallettsville,58.24,161.03,72.57,149.69,383.29,Single-ply,SBD,M
Boys,59.87,7,Nick Provost,Conroe The Woodlands,57.88,142.88,68.04,158.76,369.68,Single-ply,SBD,M
Boys,59.87,8,Ryan Anthis,Waller,59.24,124.74,70.31,158.76,353.8,Single-ply,SBD,M
Boys,59.87,9,Justin Troublefield,Magnolia,56.79,140.61,63.5,147.42,351.53,Single-ply,SBD,M
Boys,59.87,10,Brandon Parker #2,Livingston,56.52,111.13,61.23,115.67,288.03,Single-ply,SBD,M
Boys,67.13,1,Caleb Hall,Montgomery,65.95,215.46,113.4,188.24,517.1,Single-ply,SBD,M
Boys,67.13,2,Anthony Salazar,Conroe The Woodlands,64.77,179.17,120.2,190.51,489.88,Single-ply,SBD,M
Boys,67.13,3,Ismael Orduna,Livingston,67.13,185.97,95.25,195.04,476.27,Single-ply,SBD,M
Boys,67.13,4,JT Abshire,College Station,65.86,192.78,102.06,174.63,469.47,Single-ply,SBD,M
Boys,67.13,5,Gabriel Gonzales,Magnolia West,66.77,190.51,102.06,176.9,469.47,Single-ply,SBD,M
Boys,67.13,6,Jordan Baker,Huntsville,65.68,170.1,102.06,188.24,460.4,Single-ply,SBD,M
Boys,67.13,7,Humberto Avila,Huntsville,67.13,181.44,95.25,167.83,444.52,Single-ply,SBD,M
Boys,67.13,8,Kevin Ramos,Navasota,64.41,170.1,99.79,163.29,433.18,Single-ply,SBD,M
Boys,67.13,9,Caelin Lucie,Bryan,66.77,154.22,86.18,158.76,399.16,Single-ply,SBD,M
Boys,67.13,10,Chase Gibson,College Station A&M; Cons,64.86,142.88,86.18,158.76,387.82,Single-ply,SBD,M
Boys,67.13,11,Bladen Reaves,Bryan Rudder,65.5,131.54,70.31,145.15,347,Single-ply,SBD,M
Boys,67.13,DQ,Jose Martinez,Brookshire Royal,62.6,,,,,Single-ply,SBD,M
Boys,67.13,DQ,Blake Hagler,Splendora,66.59,104.33,,,,Single-ply,SBD,M
Boys,74.84,1,Noah Steptoe,Navasota,71.21,249.48,136.08,222.26,607.81,Single-ply,SBD,M
Boys,74.84,2,Morgan Segovia,Palacios,74.66,213.19,111.13,181.44,505.76,Single-ply,SBD,M
Boys,74.84,3,BJ Mottu,Livingston,69.76,179.17,115.67,206.38,501.22,Single-ply,SBD,M
Boys,74.84,4,Hunter Luscombe,Sealy,73.21,190.51,120.2,190.51,501.22,Single-ply,SBD,M
Boys,74.84,5,Joseph Stewart,Brookshire Royal,73.57,197.31,115.67,185.97,498.95,Single-ply,SBD,M
Boys,74.84,6,Ryan Rios,Navasota,74.48,176.9,104.33,140.61,421.84,Single-ply,SBD,M
Boys,74.84,7,Donquavian Steptoe,Navasota,71.67,172.37,92.99,154.22,419.57,Single-ply,SBD,M
Boys,74.84,8,Javon Jefferson,Bryan,70.85,154.22,104.33,158.76,417.3,Single-ply,SBD,M
Boys,74.84,9,Abraham Moreno,Sealy,73.57,145.15,90.72,174.63,410.5,Single-ply,SBD,M
Boys,74.84,10,William Broussard,Livingston,74.03,156.49,83.91,170.1,410.5,Single-ply,SBD,M
Boys,74.84,11,Gerardo Aleman,Caldwell,73.66,167.83,77.11,163.29,408.23,Single-ply,SBD,M
Boys,74.84,12,Mark Vavra,Bryan,74.84,154.22,90.72,154.22,399.16,Single-ply,SBD,M
Boys,74.84,13,John Cosino,Navasota,72.12,142.88,74.84,142.88,360.61,Single-ply,SBD,M
Boys,74.84,14,Miccah Legg,Livingston,72.12,142.88,74.84,131.54,349.27,Single-ply,SBD,M
Boys,74.84,15,Jorge Molina,Conroe The Woodlands,69.4,111.13,72.57,129.27,312.98,Single-ply,SBD,M
Boys,74.84,16,BJ Alvarado,Sealy,74.84,90.72,52.16,104.33,247.21,Single-ply,SBD,M
Boys,74.84,DQ,Javante Wade,Brookshire Royal,73.21,,,,,Single-ply,SBD,M
Boys,82.1,1,Robert Franklin,College Station A&M; Cons,78.83,219.99,133.81,229.06,582.87,Single-ply,SBD,M
Boys,82.1,2,Isaiah Herring,Hallettsville,78.93,217.72,136.08,219.99,573.79,Single-ply,SBD,M
Boys,82.1,3,Dylan Tomek,Hallettsville,80.38,217.72,138.35,215.46,571.53,Single-ply,SBD,M
Boys,82.1,4,Jason Campbell,Conroe Woodlands College Park,80.1,219.99,115.67,233.6,569.26,Single-ply,SBD,M
Boys,82.1,5,Nathan Ellard,College Station,81.19,224.53,131.54,192.78,548.85,Single-ply,SBD,M
Boys,82.1,6,Michael Morris #2,Splendora,79.38,197.31,138.35,195.04,530.7,Single-ply,SBD,M
Boys,82.1,7,Trevor Williams,College Station A&M; Cons,78.93,201.85,124.74,195.04,521.63,Single-ply,SBD,M
Boys,82.1,8,Leonard Abke,Navasota,80.29,213.19,127.01,172.37,512.56,Single-ply,SBD,M
Boys,82.1,9,Vincent Wilson,Rogers,80.74,181.44,145.15,185.97,512.56,Single-ply,SBD,M
Boys,82.1,10,Dereck Morris,Hempstead,80.1,204.12,99.79,206.38,510.29,Single-ply,SBD,M
Boys,82.1,11,Preston Demming,Magnolia West,77.84,163.29,115.67,181.44,460.4,Single-ply,SBD,M
Boys,82.1,12,Jason Cartwright,Navasota,81.19,165.56,95.25,183.7,444.52,Single-ply,SBD,M
Boys,82.1,13,Jaxsen Sewell,Magnolia West,80.1,172.37,97.52,147.42,417.3,Single-ply,SBD,M
Boys,82.1,14,Nick McBride,Conroe The Woodlands,78.02,154.22,92.99,163.29,410.5,Single-ply,SBD,M
Boys,82.1,15,Kane Placker,Livingston,78.2,156.49,97.52,142.88,396.89,Single-ply,SBD,M
Boys,82.1,16,Anthony Acosta,Navasota,79.38,145.15,83.91,149.69,378.75,Single-ply,SBD,M
Boys,82.1,17,Mauro Calderon,Brookshire Royal,80.83,142.88,83.91,145.15,371.95,Single-ply,SBD,M
Boys,82.1,DQ,Trey Williams,Huntsville,81.87,185.97,,,,Single-ply,SBD,M
Boys,82.1,DQ,Josh Russell,Rogers,79.83,165.56,,,,Single-ply,SBD,M
Boys,82.1,DQ,Jonathan Chavarin,Yoakum,80.65,215.46,,,,Single-ply,SBD,M
Boys,89.81,1,Tony Tapia,Conroe Woodlands College Park,86.55,240.4,149.69,213.19,603.28,Single-ply,SBD,M
Boys,89.81,2,Ali Jumili,Conroe The Woodlands,89.09,215.46,145.15,231.33,591.94,Single-ply,SBD,M
Boys,89.81,3,Anthony Chaney,Huntsville,89.58,219.99,133.81,229.06,582.87,Single-ply,SBD,M
Boys,89.81,4,Ben Carmean,Bellville,88.99,244.94,142.88,192.78,580.6,Single-ply,SBD,M
Boys,89.81,5,Noah Clarkson,Magnolia West,89.18,215.46,149.69,213.19,578.33,Single-ply,SBD,M
Boys,89.81,6,Vaughn Morris,Hempstead,87.63,233.6,136.08,204.12,573.79,Single-ply,SBD,M
Boys,89.81,7,Mark Wagner,College Station,89.54,222.26,136.08,208.65,566.99,Single-ply,SBD,M
Boys,89.81,8,Jason Jasperson,College Station A&M; Cons,89.09,213.19,127.01,222.26,562.45,Single-ply,SBD,M
Boys,89.81,9,Elijah Edwards,Palacios,86.64,197.31,124.74,238.14,560.19,Single-ply,SBD,M
Boys,89.81,10,Darian Thomas,Sealy,86.73,217.72,124.74,215.46,557.92,Single-ply,SBD,M
Boys,89.81,11,Noah Bryson,Magnolia West,87.09,233.6,106.59,206.38,546.58,Single-ply,SBD,M
Boys,89.81,12,Ben Wolz,College Station,88.18,215.46,120.2,206.38,542.04,Single-ply,SBD,M
Boys,89.81,13,Kris Smith,Huntsville,87.95,204.12,113.4,208.65,526.17,Single-ply,SBD,M
Boys,89.81,14,Cortney Young #2,Rogers,83.01,208.65,108.86,192.78,510.29,Single-ply,SBD,M
Boys,89.81,15,Edgar Silva,Navasota,87.09,181.44,124.74,181.44,487.61,Single-ply,SBD,M
Boys,89.81,16,Royce Gilreath,Bryan,89.63,158.76,115.67,192.78,467.2,Single-ply,SBD,M
Boys,89.81,17,Chris Clausen,Livingston,88.54,183.7,111.13,167.83,462.66,Single-ply,SBD,M
Boys,89.81,18,Jackson Engel,Palacios,86.64,174.63,92.99,185.97,453.59,Single-ply,SBD,M
Boys,89.81,19,Chris Sebesta,Snook,89.36,149.69,92.99,147.42,390.09,Single-ply,SBD,M
Boys,89.81,20,Brendan Callihan,Conroe The Woodlands,87.72,136.08,83.91,127.01,347,Single-ply,SBD,M
Boys,89.81,DQ,Nathaniel Banuelos,Navasota,89.36,,,,,Single-ply,SBD,M
Boys,89.81,DQ,Daniel García,Brookshire Royal,89.54,,,,,Single-ply,SBD,M
Boys,89.81,DQ,John Thomas,Snook,88.81,,,,,Single-ply,SBD,M
Boys,89.81,DQ,Austin Ham,College Station,87.82,181.44,83.91,,,Single-ply,SBD,M
Boys,89.81,DQ,James Taylor #5,Wallis Brazos,87.18,,,,,Single-ply,SBD,M
Boys,99.79,1,Kaden Hardt,Hallettsville,96.07,272.16,174.63,242.67,689.46,Single-ply,SBD,M
Boys,99.79,2,Will Efendiev,College Station,96.52,263.08,170.1,249.48,682.66,Single-ply,SBD,M
Boys,99.79,3,Bailey Reid,Bryan Rudder,99.16,244.94,167.83,217.72,630.49,Single-ply,SBD,M
Boys,99.79,4,Cole Wade,Magnolia West,92.99,240.4,133.81,231.33,605.55,Single-ply,SBD,M
Boys,99.79,5,Kevin Leonard,College Station A&M; Cons,93.53,231.33,127.01,231.33,589.67,Single-ply,SBD,M
Boys,99.79,6,Logan Clarke,Magnolia West,99.79,213.19,131.54,208.65,553.38,Single-ply,SBD,M
Boys,99.79,7,Michael Taylor,Splendora,97.66,188.24,140.61,206.38,535.24,Single-ply,SBD,M
Boys,99.79,8,Travis Damazio,Magnolia,91.53,197.31,115.67,190.51,503.49,Single-ply,SBD,M
Boys,99.79,9,Luke Berglund,Bellville,96.8,174.63,124.74,204.12,503.49,Single-ply,SBD,M
Boys,99.79,10,Ronald Lee,Navasota,97.52,195.04,108.86,199.58,503.49,Single-ply,SBD,M
Boys,99.79,11,Jaylin Bell,Bryan,94.44,199.58,97.52,181.44,478.54,Single-ply,SBD,M
Boys,99.79,12,Jesus Bernal,Brookshire Royal,94.17,167.83,104.33,136.08,408.23,Single-ply,SBD,M
Boys,99.79,13,Gonzalo Barron,Bryan,91.17,145.15,72.57,142.88,360.61,Single-ply,SBD,M
Boys,99.79,DQ,Cedrick Hohnson,Bryan,94.57,,,,,Single-ply,SBD,M
Boys,99.79,DQ,Lex Leibfried,Bellville,97.61,249.48,147.42,,,Single-ply,SBD,M
Boys,99.79,DQ,Hilario Rodriguez,Navasota,98.88,224.53,120.2,,,Single-ply,SBD,M
Boys,99.79,DQ,Jared Soyring,Magnolia West,97.07,,,,,Single-ply,SBD,M
Boys,109.77,1,Hunter Madore,Conroe The Woodlands,105.78,244.94,163.29,240.4,648.64,Single-ply,SBD,M
Boys,109.77,2,Matthew Reed,Conroe Woodlands College Park,108.41,258.55,136.08,249.48,644.1,Single-ply,SBD,M
Boys,109.77,3,Hunter Grimmett,Montgomery,102.87,238.14,149.69,242.67,630.49,Single-ply,SBD,M
Boys,109.77,4,Zach Solano,Rogers,102.87,251.74,158.76,199.58,610.08,Single-ply,SBD,M
Boys,109.77,5,Cal Bauer,Navasota,107.05,222.26,161.03,226.8,610.08,Single-ply,SBD,M
Boys,109.77,6,Seth Mericle,Splendora,107.95,208.65,163.29,195.04,566.99,Single-ply,SBD,M
Boys,109.77,7,Brady Roberts,Bryan Rudder,106.82,210.92,147.42,183.7,542.04,Single-ply,SBD,M
Boys,109.77,8,Colten Orsak,Snook,105.14,204.12,113.4,208.65,526.17,Single-ply,SBD,M
Boys,109.77,9,Dominique Brazil,Palacios,104.69,188.24,113.4,219.99,521.63,Single-ply,SBD,M
Boys,109.77,10,Felipe Alvarado,Navasota,107.95,208.65,106.59,183.7,498.95,Single-ply,SBD,M
Boys,109.77,DQ,Levi Libhart,Rogers,102.33,,,,,Single-ply,SBD,M
Boys,109.77,DQ,Clifford Chambers,Bryan Rudder,109.04,,,,,Single-ply,SBD,M
Boys,109.77,DQ,Ian Wooley,College Station,100.97,240.4,136.08,,,Single-ply,SBD,M
Boys,124.74,1,Charles Owens,Bryan Rudder,124.74,344.73,176.9,265.35,786.98,Single-ply,SBD,M
Boys,124.74,2,Corey Stang,Magnolia,113.67,272.16,156.49,244.94,673.58,Single-ply,SBD,M
Boys,124.74,3,Jared Spivey,Bryan,115.67,263.08,165.56,226.8,655.44,Single-ply,SBD,M
Boys,124.74,4,Dustin Willis,Splendora,122.83,263.08,138.35,217.72,619.15,Single-ply,SBD,M
Boys,124.74,5,Jerimiah Williams,College Station,116.12,240.4,136.08,192.78,569.26,Single-ply,SBD,M
Boys,124.74,6,Joshua Peoples,Bryan Rudder,123.47,197.31,115.67,235.87,548.85,Single-ply,SBD,M
Boys,124.74,7,Tyler Lang,Navasota,119.29,208.65,120.2,213.19,542.04,Single-ply,SBD,M
Boys,124.74,8,Hunter Breaux,Bellville,124.74,215.46,147.42,174.63,537.51,Single-ply,SBD,M
Boys,124.74,9,Kellan Anderson,Rogers,114.76,208.65,99.79,204.12,512.56,Single-ply,SBD,M
Boys,124.74,10,Tatum Brokaw,Magnolia,116.35,204.12,111.13,190.51,505.76,Single-ply,SBD,M
Boys,124.74,11,CJ Knighon,Livingston,115.39,215.46,97.52,183.7,496.68,Single-ply,SBD,M
Boys,124.74,12,Tyler Allen,Sealy,110.86,204.12,124.74,158.76,487.61,Single-ply,SBD,M
Boys,124.74,13,Daniel Leon,Magnolia,119.75,199.58,99.79,149.69,449.06,Single-ply,SBD,M
Boys,124.74,14,Harrison Sorenson,Conroe The Woodlands,114.89,147.42,92.99,165.56,405.97,Single-ply,SBD,M
Boys,124.74,DQ,Joseph Issac,Huntsville,117.48,,,,,Single-ply,SBD,M
Boys,124.74,DQ,De'Mondre Wade,Brookshire Royal,115.76,,,,,Single-ply,SBD,M
Boys,124.74,DQ,Jon Michael Shepard,Brookshire Royal,116.12,,,,,Single-ply,SBD,M
Boys,124.74,DQ,Tyler Burford,Magnolia West,114.76,,,,,Single-ply,SBD,M
Boys,124.74,DQ,Kevin Rodriguez,Navasota,118.84,215.46,124.74,,,Single-ply,SBD,M
Boys,124.74,DQ,Jared Clay,Navasota,114.03,,,,,Single-ply,SBD,M
Boys,124.74+,1,Jordan Seymore,College Station,152.41,340.19,165.56,254.01,759.77,Single-ply,SBD,M
Boys,124.74+,2,Corey Ross,Navasota,128.82,263.08,201.85,235.87,700.8,Single-ply,SBD,M
Boys,124.74+,3,Stephen Nevarez,Magnolia West,128.37,263.08,158.76,235.87,657.71,Single-ply,SBD,M
Boys,124.74+,4,Joseph Sols,Magnolia,146.51,258.55,149.69,249.48,657.71,Single-ply,SBD,M
Boys,124.74+,5,Zach Sowa,Sealy,135.62,215.46,138.35,185.97,539.77,Single-ply,SBD,M
Boys,124.74+,6,James Fry,Rogers,128.91,197.31,131.54,192.78,521.63,Single-ply,SBD,M
Boys,124.74+,7,Christian Shannahan,Magnolia,135.62,197.31,131.54,181.44,510.29,Single-ply,SBD,M
Boys,124.74+,8,De'vonze Franklin,Snook,147.87,165.56,136.08,172.37,474,Single-ply,SBD,M
Boys,124.74+,9,Eddie Acosta,Bryan,133.99,181.44,104.33,181.44,467.2,Single-ply,SBD,M
Boys,124.74+,10,Anthony Hernandez,Sealy,129,147.42,122.47,165.56,435.45,Single-ply,SBD,M
Boys,124.74+,11,Jaquay Thomas,Magnolia,151.05,181.44,92.99,154.22,428.64,Single-ply,SBD,M
Boys,124.74+,DQ,Derrick Rigsby,Huntsville,135.62,224.53,122.47,,,Single-ply,SBD,M
Boys,,NS,Axel Morfin,Conroe Woodlands College Park,,,,,,Single-ply,SBD,M
Boys,,NS,Javier Solano,Conroe Woodlands College Park,,,,,,Single-ply,SBD,M
Boys,,NS,Fransisco Serrato,Brookshire Royal,,,,,,Single-ply,SBD,M
Boys,,NS,Corey Scott,Livingston,,,,,,Single-ply,SBD,M
Boys,,NS,Cameron Nava,Magnolia,,,,,,Single-ply,SBD,M
Boys,,NS,Justin Garza,Yoakum,,,,,,Single-ply,SBD,M
Boys,,NS,Juan Cabello,Yoakum,,,,,,Single-ply,SBD,M
Boys,,NS,KeKe Anderson,College Station,,,,,,Single-ply,SBD,M
Boys,,NS,Caleb Broussard,Waller,,,,,,Single-ply,SBD,M
Boys,,NS,Obed Alaniz,Sealy,,,,,,Single-ply,SBD,M
Boys,,NS,Nathan Erickson,Splendora,,,,,,Single-ply,SBD,M
Boys,,NS,Lane Goodwin,Splendora,,,,,,Single-ply,SBD,M
Boys,,NS,Tamarion Flowers,Snook,,,,,,Single-ply,SBD,M
Boys,,NS,Nickolas Johnson #1,Bryan Rudder,,,,,,Single-ply,SBD,M
Boys,,NS,Johnathon Peterson,Bryan Rudder,,,,,,Single-ply,SBD,M
Boys,,NS,Chris Owens,Bryan Rudder,,,,,,Single-ply,SBD,M
Boys,,NS,Devin Levias,College Station A&M; Cons,,,,,,Single-ply,SBD,M
Boys,,NS,Jordan Smith #6,College Station A&M; Cons,,,,,,Single-ply,SBD,M
