Name,Age,Event,Sex,Equipment,Division,BodyweightKg,WeightClassKg,Squat1Kg,Squat2Kg,Squat3Kg,Squat4Kg,Best3SquatKg,Bench1Kg,Bench2Kg,Bench3Kg,Bench4Kg,Best3BenchKg,Deadlift1Kg,Deadlift2Kg,Deadlift3Kg,Deadlift4Kg,Best3DeadliftKg,TotalKg,Place,Tested
Sally Diann Griffen,65,SBD,F,Raw,F_MR_6_AAPF,84.4,90,55,65,75,,75,37.5,42.5,-47.5,,42.5,82.5,92.5,102.5,,102.5,220,1,Yes
Lucy Galpin,61,SBD,F,Raw,F_MR_5_AAPF,72.3,75,42.5,50,55,,55,35,37.5,-40,,37.5,85,92.5,97.5,,97.5,190,1,Yes
Mary Cruse,62,SBD,F,Raw,F_MR_5_AAPF,111.1,90+,-32.5,32.5,47.5,,47.5,40,45,-47.5,,45,65,70,85,,85,177.5,1,Yes
Joan Cooper,57,SBD,F,Raw,F_MR_4_AAPF,58.9,60,60,65,-70,,65,47.5,50,-52.5,,50,107.5,,,,107.5,222.5,1,Yes
Julie Barnes,58,SBD,F,Raw,F_MR_4_AAPF,66.4,67.5,40,45,50,,50,32.5,-40,-40,,32.5,67.5,72.5,82.5,,82.5,165,1,Yes
Karen Ferrero,48,SBD,F,Raw,F_MR_2_AAPF,46,48,50,55,62.5,,62.5,35,40,-42.5,,40,85,90,92.5,,92.5,195,1,Yes
Dawn Maroscher,48,SBD,F,Raw,F_MR_2_AAPF,66.6,67.5,110,117.5,120,,120,85,92.5,95.5,,95.5,140,150,165,,165,380,1,Yes
Janice Looney,47,SBD,F,Raw,F_MR_2_AAPF,63.25,67.5,-82.5,82.5,85,,85,45,47.5,-50,,47.5,125,130,-137.5,,130,262.5,2,Yes
Brenda Bowen,45,SBD,F,Raw,F_MR_2_AAPF,87,90,102.5,-125,125,-132.5,125,62.5,70,-72.5,,70,102.5,125,137.5,140,137.5,332.5,1,Yes
Beth Bomia,47,SBD,F,Raw,F_MR_2_AAPF,86.3,90,102.5,107.5,-120,,107.5,55,60,-65,,60,125,135,140,,140,307.5,2,Yes
Melissa Gibson,45,SBD,F,Raw,F_MR_2_AAPF,110,90+,92.5,102.5,-112.5,,102.5,50,60,-62.5,,60,105,117.5,127.5,,127.5,290,1,Yes
Katie Aretos,35,SBD,F,Raw,F_SR_AAPF,58,60,80,85,90,,90,52.5,55,57.5,,57.5,95,102.5,105,,105,252.5,1,Yes
Amanda Heda,36,SBD,F,Raw,F_SR_AAPF,65.7,67.5,100,107.5,-112.5,,107.5,47.5,50,52.5,,52.5,102.5,107.5,110,,110,270,1,Yes
Michelle Kania,37,SBD,F,Raw,F_SR_AAPF,68.5,75,97.5,105,-110,,105,-65,-65,65,,65,122.5,132.5,137.5,,137.5,307.5,1,Yes
Angela Ikner,36,SBD,F,Raw,F_SR_AAPF,89.8,90,115,-127.5,130,,130,62.5,-67.5,70,,70,130,147.5,152.5,,152.5,352.5,1,Yes
Kathryn Skarin,21,SBD,F,Raw,F_JR_AAPF,47.1,48,50,55,-65,,55,40,42.5,-45,,42.5,102.5,115,125,,125,222.5,1,Yes
Amelia Volkert,22,SBD,F,Raw,F_JR_AAPF,55.7,56,77.5,87.5,92.5,,92.5,50,57.5,-60,,57.5,95,102.5,107.5,,107.5,257.5,1,Yes
Ashley Torok,21,SBD,F,Raw,F_JR_AAPF,66.7,67.5,110,115,-125,,115,60,62.5,-65,,62.5,132.5,-137.5,,,132.5,310,1,Yes
Katie Bochenek,18,SBD,F,Raw,F_TR_3_AAPF,70.35,75,107.5,112.5,118,-122.5,118,52.5,60,-65,,60,142.5,150,-150.5,,150,328,1,Yes
Ally Serbick,17,SBD,F,Raw,F_TR_2_AAPF,60.3,67.5,70,80,87.5,,87.5,40,45,-50,,45,97.5,107.5,115,,115,247.5,1,Yes
Natalie Abrhiem,27,SBD,F,Raw,F_OR_AAPF,47.2,48,-97.5,102.5,-110.5,,102.5,45,50,-52.5,,50,102.5,107.5,117.5,,117.5,270,1,Yes
Heather Regnier,41,SBD,F,Raw,F_OR_AAPF,55.2,56,100,107.5,115,,115,50,55,-60,,55,110,120,-122.5,,120,290,1,Yes
Shorook Quran,29,SBD,F,Raw,F_OR_AAPF,58.1,60,97.5,105,-110,,105,45,50,-52.5,,50,125,-132.5,-132.5,,125,280,1,Yes
Christina Candelora,32,SBD,F,Raw,F_OR_AAPF,66.6,67.5,117.5,125,132.5,,132.5,52.5,60,-62.5,,60,125,140,150,,150,342.5,1,Yes
Jessica Vertregt,28,SBD,F,Raw,F_OR_AAPF,65.3,67.5,115,122.5,-130,,122.5,57.5,60,-65,,60,137.5,147.5,-152.5,,147.5,330,2,Yes
Amanda Heda,36,SBD,F,Raw,F_OR_AAPF,65.7,67.5,100,107.5,-112.5,,107.5,47.5,50,52.5,,52.5,102.5,107.5,110,,110,270,3,Yes
Michelle Harris,38,SBD,F,Raw,F_OR_AAPF,74.2,75,137.5,147.5,152.5,,152.5,80,-82.5,-82.5,,80,167.5,172.5,-175,,172.5,405,1,Yes
Ashley Porter,30,SBD,F,Raw,F_OR_AAPF,74.7,75,102.5,107.5,115,,115,52.5,57.5,-62.5,,57.5,137.5,145,157.5,,157.5,330,2,Yes
Katie Murawski,27,SBD,F,Raw,F_OR_AAPF,81.3,82.5,120,130,-132.5,,130,47.5,50,55,,55,135,147.5,160,,160,345,1,Yes
Stephanie DeMarco,26,SBD,F,Raw,F_OR_AAPF,81.1,82.5,105,117.5,122.5,,122.5,42.5,50,-57.5,,50,120,130,140,,140,312.5,2,Yes
Angela Ikner,36,SBD,F,Raw,F_OR_AAPF,89.8,90,115,-127.5,130,,130,62.5,-67.5,70,,70,130,147.5,152.5,,152.5,352.5,1,Yes
Brenda Bowen,45,SBD,F,Raw,F_OR_AAPF,87,90,102.5,-125,125,-132.5,125,62.5,70,-72.5,,70,102.5,125,137.5,140,137.5,332.5,2,Yes
Stacy Hawkins #1,31,SBD,F,Raw,F_OR_AAPF,119,90+,137.5,145,152.5,,152.5,82.5,92.5,-95,,92.5,142.5,157.5,162.5,,162.5,407.5,1,Yes
Chelsea Armstrong,27,SBD,F,Raw,F_OR_AAPF,97.1,90+,135,145,-150,,145,80,-82.5,82.5,,82.5,150,157.5,162.5,,162.5,390,2,Yes
Jaimie Makowski,28,SBD,F,Raw,F_OR_AAPF,145.45,90+,110,122.5,137.5,,137.5,50,57.5,-65,,57.5,122.5,132.5,-147.5,,132.5,327.5,3,Yes
Rita Carlsson,64,SBD,F,Multi-ply,F_MEM_5_AAPF,59,60,170,-185,-185,,170,55,-57.5,-57.5,,55,147.5,155,162.5,170,162.5,387.5,1,Yes
Alexandra Vallejo,51,SBD,F,Single-ply,F_MES_3_AAPF,51.1,52,85,100,110,,110,55,57.5,-67.5,,57.5,112.5,117.5,-120,,117.5,285,1,Yes
Rachel Zipsie,47,SBD,F,Multi-ply,F_MEM_2_AAPF,111.1,90+,200,217.5,-227.5,,217.5,97.5,-112.5,-115,,97.5,162.5,-175,-182.5,,162.5,477.5,1,Yes
Nikki Merson,45,SBD,F,Wraps,F_MCR_2_AAPF,67.4,67.5,90,105,107.5,,107.5,57.5,62.5,65,,65,110,127.5,-137.5,,127.5,300,1,Yes
Erin Zemanovic,47,SBD,F,Wraps,F_MCR_2_AAPF,74.7,75,107.5,115,-125,,115,65,67.5,-72.5,,67.5,115,125,-132.5,,125,307.5,1,Yes
Charlie Stevens #1,46,SBD,F,Wraps,F_MCR_2_AAPF,81.5,82.5,102.5,115,122.5,,122.5,52.5,60,65,,65,125,140,150,,150,337.5,1,Yes
Tina Enners,48,SBD,F,Wraps,F_MCR_2_AAPF,98.6,90+,-92.5,95,102.5,,102.5,45,50,52.5,,52.5,120,130,137.5,,137.5,292.5,1,Yes
Amy Lindsay,44,SBD,F,Wraps,F_MCR_1_AAPF,74.1,75,70,77.5,-82.5,,77.5,52.5,57.5,60,,60,95,100,105,107.5,105,242.5,1,Yes
Victoria Ruiz,36,SBD,F,Wraps,F_SCR_AAPF,68.8,75,-82.5,82.5,92.5,,92.5,52.5,60,62.5,,62.5,140,147.5,155,,155,310,1,Yes
Allison Hazel,23,SBD,F,Wraps,F_JCR_AAPF,72.1,75,115,120,132.5,,132.5,-80,82.5,-87.5,,82.5,137.5,150,-155,,150,365,1,Yes
Annika Parssinen,21,SBD,F,Wraps,F_JCR_AAPF,68.6,75,122.5,132.5,137.5,,137.5,62.5,65,-67.5,,65,132.5,137.5,142.5,,142.5,345,2,Yes
Tyi Richards,21,SBD,F,Wraps,F_JCR_AAPF,81.7,82.5,-162.5,162.5,167.5,-172.5,167.5,82.5,92.5,-97.5,,92.5,150,165,175,-182.5,175,435,1,Yes
Jenna Marcinkowski,21,SBD,F,Wraps,F_JCR_AAPF,81.5,82.5,137.5,147.5,-160,,147.5,72.5,82.5,-87.5,,82.5,145,157.5,-165,,157.5,387.5,2,Yes
Sam Cichy,23,SBD,F,Wraps,F_JCR_AAPF,88.6,90,110,117.5,122.5,,122.5,65,70,-75,,70,152.5,160,165.5,,165.5,358,1,Yes
Alexis McCarthy,18,SBD,F,Multi-ply,F_TEM_3_AAPF,54,56,122.5,137.5,-145,,137.5,65,-75,75,-80,75,127.5,-137.5,-137.5,,127.5,340,1,Yes
Taylor Longstreth,19,SBD,F,Wraps,F_TCR_3_AAPF,74.55,75,95,102.5,105,107.5,105,50,52.5,-55,,52.5,107.5,112.5,117.5,,117.5,275,1,Yes
Rochelle Longstreth,16,SBD,F,Wraps,F_TCR_2_AAPF,79,82.5,75,92.5,100,-102.5,100,47.5,50,52.5,-55,52.5,110,120,-132.5,,120,272.5,1,Yes
Isabel Figueroa,14,SBD,F,Wraps,F_TCR_1_AAPF,100.4,90+,-142.5,142.5,-147.5,,142.5,67.5,70,72.5,75,72.5,142.5,150,152.5,,152.5,367.5,1,Yes
Paige Miller,25,SBD,F,Multi-ply,F_OEM_AAPF,82.4,82.5,245,260,-272.5,,260,-132.5,-132.5,132.5,,132.5,175,185,-195,,185,577.5,1,Yes
Briana Maison,26,SBD,F,Wraps,F_OCR_AAPF,51.3,52,90,-97.5,97.5,,97.5,40,42.5,45,,45,95,97.5,102.5,,102.5,245,1,Yes
Kajilla Jacomo,37,SBD,F,Wraps,F_OCR_AAPF,54,56,-125,127.5,-135,,127.5,55,-57.5,-57.5,,55,140,145,150,,150,332.5,1,Yes
Yanet Millan,31,SBD,F,Wraps,F_OCR_AAPF,54.1,56,-117.5,-122.5,122.5,,122.5,52.5,-55,-55,,52.5,117.5,122.5,125,,125,300,2,Yes
Lindsay Crosby,25,SBD,F,Wraps,F_OCR_AAPF,56.8,60,105,112.5,120,,120,62.5,67.5,-72.5,,67.5,155,-165,-165,,155,342.5,1,Yes
Nikki Merson,45,SBD,F,Wraps,F_OCR_AAPF,67.4,67.5,90,105,107.5,,107.5,57.5,62.5,65,,65,110,127.5,-137.5,,127.5,300,1,Yes
Siera Brown,30,SBD,F,Wraps,F_OCR_AAPF,71.6,75,-112.5,115,122.5,,122.5,67.5,72.5,-77.5,,72.5,125,132.5,140,,140,335,1,Yes
Jennifer Lang,30,SBD,F,Wraps,F_OCR_AAPF,71.55,75,90,95,100,,100,57.5,65,-67.5,,65,112.5,125,-135,,125,290,2,Yes
Meredith Krafcheck,26,SBD,F,Wraps,F_OCR_AAPF,74.6,75,87.5,-95,95,,95,47.5,-57.5,-57.5,,47.5,107.5,117.5,-130,,117.5,260,3,Yes
Tyi Richards,21,SBD,F,Wraps,F_OCR_AAPF,81.7,82.5,-162.5,162.5,167.5,-172.5,167.5,82.5,92.5,-97.5,,92.5,150,165,175,-182.5,175,435,1,Yes
Darci Molina,25,SBD,F,Wraps,F_OCR_AAPF,78.35,82.5,157.5,-165,165,,165,90,95,-97.5,,95,157.5,162.5,-170,,162.5,422.5,2,Yes
Jenna Marcinkowski,21,SBD,F,Wraps,F_OCR_AAPF,81.5,82.5,137.5,147.5,-160,,147.5,72.5,82.5,-87.5,,82.5,145,157.5,-165,,157.5,387.5,3,Yes
Raegan Porter,31,SBD,F,Wraps,F_OCR_AAPF,81.5,82.5,-85,85,,,85,52.5,57.5,-65,,57.5,95,97.5,105,,105,247.5,4,Yes
Sam Cichy,23,SBD,F,Wraps,F_OCR_AAPF,88.6,90,110,117.5,122.5,,122.5,65,70,75,,75,152.5,160,165.5,,165.5,363,1,Yes
Lindsey Adams,31,SBD,F,Wraps,F_OCR_AAPF,89.6,90,122.5,130,-137.5,,130,65,70,72.5,,72.5,132.5,140,147.5,,147.5,350,2,Yes
Rebecca Ivers,26,SBD,F,Wraps,F_OCR_AAPF,91.9,90+,135,-147.5,147.5,,147.5,65,70,-72.5,,70,-155,-155,155,,155,372.5,1,Yes
Kirby Anderson,81,SBD,M,Multi-ply,M_MEM_9_AAPF,65.3,67.5,110,120,125,135,125,75,-82.5,82.5,-85,82.5,95,102.5,112.5,,112.5,320,1,Yes
Richard Flores #1,79,SBD,M,Multi-ply,M_MEM_8_AAPF,71.6,75,130,-152.5,160.5,,160.5,62.5,70,72.5,,72.5,160,175,-192.5,,175,408,1,Yes
William Hosken,79,SBD,M,Raw,M_MR_8_AAPF,75.55,82.5,75,80,85,,85,55,60,-65,,60,120,125,130,,130,275,1,Yes
Jon Smoker,70,SBD,M,Raw,M_MR_7_AAPF,74.7,75,115,142.5,150.5,,150.5,105,110,-115.5,,110,142.5,152.5,,,152.5,413,1,Yes
Jimmy Bishop,69,SBD,M,Single-ply,M_MES_6_AAPF,96.45,100,172.5,190,-205,,190,92.5,105,,,105,182.5,-205,,,182.5,477.5,1,Yes
Dan Zager,65,SBD,M,Multi-ply,M_MEM_6_AAPF,64.05,67.5,175,-185,-185,,175,62.5,70,80,,80,170,185,192.5,,192.5,447.5,1,Yes
Mike Wider,69,SBD,M,Raw,M_MR_6_AAPF,66.7,67.5,107.5,120,127.5,,127.5,70,80,,,80,170,185,195.5,,195.5,403,1,Yes
Francis Rudy Ruettiger,62,SBD,M,Multi-ply,M_MEM_5_AAPF,81.45,82.5,242.5,-277.5,277.5,,277.5,102.5,-160,160,,160,205,227.5,,,227.5,665,1,Yes
Bob Fabiano,60,SBD,M,Multi-ply,M_MEM_5_AAPF,82.1,82.5,-282.5,-282.5,-282.5,,,-165,,,,,,,,,,,DQ,Yes
Jeff Orr,61,SBD,M,Multi-ply,M_MEM_5_AAPF,97.55,100,-247.5,-247.5,257.5,-277.5,257.5,105,147.5,-160,,147.5,160,175,195,,195,600,1,Yes
Doug Petersen,62,SBD,M,Raw,M_MR_5_AAPF,81.1,82.5,180,197.5,-207.5,,197.5,115,120,122.5,,122.5,205,220,227.5,,227.5,547.5,1,Yes
George Shipley,58,SBD,M,Single-ply,M_MES_4_AAPF,73.95,75,120,125,137.5,,137.5,90,95,-97.5,,95,180,190,200,-207.5,200,432.5,1,Yes
Tim Weikert,55,SBD,M,Single-ply,M_MES_4_AAPF,98.55,100,237.5,250,260,,260,-175,175,182.5,,182.5,232.5,242.5,,,242.5,685,1,Yes
George Shipley,58,SBD,M,Wraps,M_MCR_4_AAPF,73.95,75,120,125,137.5,,137.5,90,95,-97.5,,95,180,190,200,-207.5,200,432.5,1,Yes
Chris Williams #1,58,SBD,M,Wraps,M_MCR_4_AAPF,88.55,90,110,122.5,-130,,122.5,110,-120,-120,,110,152.5,165,167.5,,167.5,400,1,Yes
Greg Zweig,57,SBD,M,Raw,M_MR_4_AAPF,80.95,82.5,175,185,190,,190,130,133,-135,,133,230,245,250.5,,250.5,573.5,1,Yes
David Burshtan,55,SBD,M,Raw,M_MR_4_AAPF,99.1,100,127.5,145,150,,150,107.5,120,-127.5,,120,150,165,175,,175,445,1,Yes
Jeff Pietka,56,SBD,M,Raw,M_MR_4_AAPF,99.05,100,125,-142.5,165,,165,102.5,115,-130,,115,142.5,160,-172.5,,160,440,2,Yes
Bud Leinenger,55,SBD,M,Raw,M_MR_4_AAPF,121.4,125,192.5,205,212.5,,212.5,112.5,117.5,-125,,117.5,205,-222.5,,,205,535,1,Yes
Wade McAteer,52,SBD,M,Single-ply,M_MES_3_AAPF,118.45,125,205,-250,,,205,62.5,195,220,227.5,220,62.5,-205,,,62.5,487.5,1,Yes
Vincent Stepchuk,51,SBD,M,Multi-ply,M_MEM_3_AAPF,91.8,100,270,-300,-300,,270,227.5,-237.5,-237.5,,227.5,220,235,245,,245,742.5,1,Yes
Michael Pascarella,52,SBD,M,Multi-ply,M_MEM_3_AAPF,124.85,125,265,277.5,295,,295,185,192.5,-200,,192.5,240,-252.5,,,240,727.5,1,Yes
Joseph Cornish,54,SBD,M,Wraps,M_MCR_3_AAPF,77.45,82.5,60,,,,60,92.5,100,112.5,,112.5,80,,,,80,252.5,1,Yes
Dan Oberman,51,SBD,M,Wraps,M_MCR_3_AAPF,89.6,90,160,172.5,182.5,,182.5,122.5,130,135,,135,217.5,232.5,245,,245,562.5,1,Yes
Reginald Barber,52,SBD,M,Wraps,M_MCR_3_AAPF,99.75,100,175,195,-210,,195,125,137.5,-142.5,,137.5,205,222.5,227.5,232.5,227.5,560,1,Yes
Bob Seeber,53,SBD,M,Wraps,M_MCR_3_AAPF,107,110,112.5,,,,112.5,135,-147.5,-147.5,,135,112.5,,,,112.5,360,1,Yes
Jeffrey Arioli,50,SBD,M,Wraps,M_MCR_3_AAPF,118.2,125,230,250,262.5,270,262.5,185,-192.5,,,185,220,230,-240,,230,677.5,1,Yes
Paul Coats,50,SBD,M,Raw,M_MR_3_AAPF,82.5,82.5,185,195,-200,,195,127.5,130,-132.5,,130,230,-240,-240,,230,555,1,Yes
Robert Bierschbach,48,SBD,M,Single-ply,M_MES_2_AAPF,135,140,255,-270,,,255,187.5,195,200,,200,235,-250,,,235,690,1,Yes
Jeff Cory,46,SBD,M,Multi-ply,M_MEM_2_AAPF,96.7,100,350,365,370,,370,-262.5,,,,,,,,,,,DQ,Yes
Darren Hodges,45,SBD,M,Multi-ply,M_MEM_2_AAPF,120.3,125,147.5,160,-170,,160,80,85,-90,,85,182.5,190,200,,200,445,1,Yes
Scott Sutherlin,45,SBD,M,Wraps,M_MCR_2_AAPF,108.3,110,185,227.5,252.5,,252.5,142.5,152.5,162.5,,162.5,205,235,-255,,235,650,1,Yes
James Williams #9,45,SBD,M,Raw,M_MR_2_AAPF,74.15,75,170,180,-185,,180,120,-130,-130,,120,200,-210,,,200,500,1,Yes
Garrin Clark,48,SBD,M,Raw,M_MR_2_AAPF,74.5,75,152.5,-160,160,,160,100,102.5,-105,,102.5,205,215,-220,,215,477.5,2,Yes
Sammy Greco,46,SBD,M,Raw,M_MR_2_AAPF,71.85,75,110,130,140,,140,82.5,95,-107.5,,95,180,187.5,-200,,187.5,422.5,3,Yes
Floyd Yager,49,SBD,M,Raw,M_MR_2_AAPF,132.2,140,210,227.5,-230,,227.5,137.5,147.5,-150,,147.5,232.5,252.5,-255,,252.5,627.5,1,Yes
Don Powers,44,SBD,M,Multi-ply,M_MEM_1_AAPF,109.95,110,272.5,-282.5,282.5,,282.5,180,187.5,-192.5,,187.5,250,272.5,-277.5,,272.5,742.5,1,Yes
Jerry Adkins,42,SBD,M,Wraps,M_MCR_1_AAPF,108.3,110,192.5,-207.5,207.5,,207.5,110,120,-127.5,,120,205,215,-230,,215,542.5,1,Yes
Lawrence Malcheff,44,SBD,M,Wraps,M_MCR_1_AAPF,159.7,140+,215,227.5,232.5,,232.5,-125,132.5,-140,,132.5,-245,247.5,255,,255,620,1,Yes
Peter Puczko,44,SBD,M,Raw,M_MR_1_AAPF,94.9,100,185,200,205,,205,115,120,-125,,120,220,230,,,230,555,1,Yes
David Athey,23,SBD,M,Single-ply,M_JES_AAPF,80.25,82.5,225,237.5,250,,250,157.5,170,182.5,,182.5,-215,215,242.5,,242.5,675,1,Yes
Brandon Mitzel,23,SBD,M,Single-ply,M_JES_AAPF,89.5,90,245,260,275,-285.5,275,155,-165,-165,,155,250,-275,-275,,250,680,1,Yes
Noah Phillips #2,22,SBD,M,Wraps,M_JCR_AAPF,55.8,56,145,160,-165,,160,85,87.5,-97.5,,87.5,147.5,-167.5,,,147.5,395,1,Yes
Austin Elpers,21,SBD,M,Wraps,M_JCR_AAPF,67.05,67.5,190,202.5,217.5,,217.5,110,120,-127.5,,120,205,215,227.5,230,227.5,565,1,Yes
Kyle Walden,20,SBD,M,Wraps,M_JCR_AAPF,98.7,100,247.5,260,-272.5,,260,137.5,147.5,-152.5,,147.5,257.5,-272.5,-272.5,,257.5,665,1,Yes
Brandon Helle,22,SBD,M,Wraps,M_JCR_AAPF,99.25,100,232.5,245,255,-260.5,255,145,152.5,157.5,,157.5,217.5,230,-232.5,,230,642.5,2,Yes
Anthony Maxwell,22,SBD,M,Wraps,M_JCR_AAPF,99,100,-185,-185,185,,185,122.5,-132.5,-132.5,,122.5,195,212.5,-220,,212.5,520,3,Yes
Michael Sell,22,SBD,M,Wraps,M_JCR_AAPF,109.25,110,267.5,-285,290,,290,162.5,-175,175,,175,275,300,-307.5,,300,765,1,Yes
Jordan Sprague,23,SBD,M,Wraps,M_JCR_AAPF,107.5,110,240,255,270,,270,140,155,-162.5,,155,280,-302.5,-310,,280,705,2,Yes
Tyler Branch,22,SBD,M,Wraps,M_JCR_AAPF,113.45,125,210,227.5,240,,240,137.5,145,-147.5,,145,250,262.5,272.5,,272.5,657.5,1,Yes
Jacob Higman,21,SBD,M,Raw,M_JR_AAPF,67.5,67.5,162.5,172.5,177.5,,177.5,107.5,-115,117.5,,117.5,197.5,202.5,207.5,,207.5,502.5,1,Yes
Lemuel Wilson,23,SBD,M,Raw,M_JR_AAPF,70.6,75,200,-212.5,212.5,,212.5,127.5,137.5,-145,,137.5,237.5,252.5,262.5,,262.5,612.5,1,Yes
Dylan Clare,20,SBD,M,Raw,M_JR_AAPF,97.55,100,180,192.5,205,,205,137.5,145,-150,,145,205,-210,,,205,555,1,Yes
Vincent Falzetta,19,SBD,M,Wraps,M_TCR_3_AAPF,72,75,205,217.5,-225,,217.5,127.5,135,140,,140,257.5,272.5,282.5,,282.5,640,1,Yes
Robert Hyc,19,SBD,M,Wraps,M_TCR_3_AAPF,81.35,82.5,-210,220,232.5,,232.5,122.5,132.5,142.5,,142.5,255,265,-272.5,,265,640,1,Yes
Peter Katsuleas,18,SBD,M,Wraps,M_TCR_3_AAPF,81.3,82.5,215,232.5,-250,,232.5,125,137.5,-147.5,,137.5,222.5,235,240,,240,610,2,Yes
Benjamin Pauza,19,SBD,M,Raw,M_TR_3_AAPF,81.65,82.5,170,180,185,,185,122.5,127.5,132.5,,132.5,207.5,215,220,,220,537.5,1,Yes
Isaac Shaw,19,SBD,M,Raw,M_TR_3_AAPF,77.5,82.5,130,145,147.5,,147.5,102.5,107.5,115,,115,160,170,-192.5,,170,432.5,2,Yes
Stihl Chalmers,17,SBD,M,Multi-ply,M_TEM_2_AAPF,67.5,67.5,-232.5,232.5,-257.5,,232.5,102.5,-117.5,117.5,,117.5,182.5,205,-217.5,,205,555,1,Yes
Sebastian Ortiz,17,SBD,M,Raw,M_TR_2_AAPF,59,60,127.5,135,140,145,140,90,95,100,,100,160,175,182.5,,182.5,422.5,1,Yes
Alfonso Tinajero,16,SBD,M,Raw,M_TR_2_AAPF,64.2,67.5,-132.5,132.5,-142.5,,132.5,85,90,-102.5,,90,130,137.5,-145,,137.5,360,1,Yes
GiHo Jeong,16,SBD,M,Raw,M_TR_2_AAPF,73.9,75,182.5,200,205,,205,90,100,-102.5,,100,175,-190,190,,190,495,1,Yes
Hunter Koller,16,SBD,M,Raw,M_TR_2_AAPF,73.5,75,142.5,-147.5,-150,,142.5,107.5,-115,-115,,107.5,160,185,-197.5,,185,435,2,Yes
Alec Wuestenfeld,16,SBD,M,Raw,M_TR_2_AAPF,72.1,75,130,140,-147.5,,140,80,85,90,,90,125,130,137.5,,137.5,367.5,3,Yes
Benjamin Calderone,16,SBD,M,Raw,M_TR_2_AAPF,87.75,90,175,-180,-182.5,,175,112.5,-117.5,-117.5,,112.5,-175,180,190,,190,477.5,1,Yes
Ricco Bertoletti,17,SBD,M,Raw,M_TR_2_AAPF,106.7,110,245,265,-272.5,,265,157.5,170,-175,,170,245,265,-272.5,,265,700,1,Yes
Jered Moreland,17,SBD,M,Raw,M_TR_2_AAPF,113.55,125,205,220,230,,230,142.5,150,155,,155,250,-275,-275,,250,635,1,Yes
Elijah Dertz,15,SBD,M,Raw,M_TR_1_AAPF,88.75,90,155,167.5,175,182.5,175,115,122.5,-127.5,,122.5,195,200,-210,,200,497.5,1,Yes
Josh Thomas,15,SBD,M,Raw,M_TR_1_AAPF,126.5,140,162.5,167.5,177.5,,177.5,110,120,-122.5,,120,140,145,-165,,145,442.5,1,Yes
Janet Sink,74,B,F,Raw,F_MR_7_AAPF,91.55,90+,,,,,,45,-47.5,47.5,,47.5,,,,,,47.5,1,Yes
Linda Zenzen,62,B,F,Multi-ply,F_MEM_5_AAPF,94.4,90+,,,,,,45,-50.5,-50.5,,45,,,,,,45,1,Yes
Rachel Nutter,46,B,F,Multi-ply,F_MEM_2_AAPF,143.05,90+,,,,,,147.5,162.5,-175,,162.5,,,,,,162.5,1,Yes
Mindy Fillmore,46,B,F,Raw,F_MR_2_AAPF,88.7,90,,,,,,57.5,60,62.5,,62.5,,,,,,62.5,1,Yes
Reagan Cress,20,B,F,Multi-ply,F_JEM_AAPF,68,75,,,,,,-115,115,-122.5,,115,,,,,,115,1,Yes
Kristin Floreno,35,B,F,Raw,F_OR_AAPF,47.55,48,,,,,,42.5,45,-50,,45,,,,,,45,1,Yes
Ian Scott,79,B,M,Raw,M_MR_8_AAPF,80.15,82.5,,,,,,107.5,110,-112.5,,110,,,,,,110,1,Yes
Wally Anczerewicz,75,B,M,Raw,M_MR_8_AAPF,86.8,90,,,,,,82.5,-87.5,92.5,,92.5,,,,,,92.5,1,Yes
Michael Casale,70,B,M,Raw,M_MR_7_AAPF,58.5,60,,,,,,87.5,92.5,95,,95,,,,,,95,1,Yes
Ron Panther,66,B,M,Raw,M_MR_6_AAPF,71.85,75,,,,,,-75,80,-85,,80,,,,,,80,1,Yes
Billy Busby,65,B,M,Raw,M_MR_6_AAPF,86.7,90,,,,,,117.5,130,135,,135,,,,,,135,1,Yes
James Spencer,62,B,M,Raw,M_MR_5_AAPF,73.7,75,,,,,,100,-105,105,,105,,,,,,105,1,Yes
Chris Williams #1,58,B,M,Raw,M_MR_4_AAPF,89.55,90,,,,,,110,117.5,-120,,117.5,,,,,,117.5,1,Yes
James Briggs,58,B,M,Raw,M_MR_4_AAPF,97.8,100,,,,,,132.5,137.5,145,,145,,,,,,145,1,Yes
Wade McAteer,52,B,M,Single-ply,M_MES_3_AAPF,116.15,125,,,,,,-205,205,220,,220,,,,,,220,1,Yes
Eric Hubbs,53,B,M,Multi-ply,M_MEM_3_AAPF,132.1,140,,,,,,102.5,-285,287.5,-300,287.5,,,,,,287.5,1,Yes
Howard Penrose,50,B,M,Multi-ply,M_MEM_3_AAPF,150.35,140+,,,,,,220,230,235,240,235,,,,,,235,1,Yes
Alan Ford,51,B,M,Raw,M_MR_3_AAPF,80,82.5,,,,,,102.5,110,-115,,110,,,,,,110,1,Yes
Matthew Walsh,53,B,M,Raw,M_MR_3_AAPF,99,100,,,,,,182.5,185,187.5,190,187.5,,,,,,187.5,1,Yes
Kenny Blackmon,46,B,M,Raw,M_MR_2_AAPF,115.05,125,,,,,,195,-210.5,-210.5,,195,,,,,,195,1,Yes
Bobby Body,42,B,M,Raw,M_MR_1_AAPF,89,90,,,,,,182.5,192.5,202.5,208,202.5,,,,,,202.5,1,Yes
Humberto Sanchez,42,B,M,Raw,M_MR_1_AAPF,98.25,100,,,,,,155,165,167.5,,167.5,,,,,,167.5,1,Yes
Jeron Roberson,35,B,M,Raw,M_SR_AAPF,59.8,60,,,,,,125,127.5,130,,130,,,,,,130,1,Yes
Mike Krieger,36,B,M,Raw,M_SR_AAPF,88.35,90,,,,,,147.5,152.5,-155,,152.5,,,,,,152.5,1,Yes
Richard Fairchild,22,B,M,Raw,M_JR_AAPF,122.4,125,,,,,,220,227.5,232.5,-235,232.5,,,,,,232.5,1,Yes
Eric Hubbs,53,B,M,Multi-ply,M_OEM_AAPF,132.1,140,,,,,,102.5,-285,287.5,-300,287.5,,,,,,287.5,1,Yes
Blasé Courville,20,B,M,Multi-ply,M_OEM_AAPF,166.7,140+,,,,,,-325,-330,335,,335,,,,,,335,1,Yes
Shaun Strauther,28,B,M,Raw,M_OR_AAPF,74.05,75,,,,,,167.5,175,-182.5,,175,,,,,,175,1,Yes
Alan Ford,51,B,M,Raw,M_OR_AAPF,80,82.5,,,,,,102.5,110,-115,,110,,,,,,110,1,Yes
Bobby Body,42,B,M,Raw,M_OR_AAPF,89,90,,,,,,182.5,192.5,202.5,208,202.5,,,,,,202.5,1,Yes
James Briggs,58,B,M,Raw,M_OR_AAPF,97.8,100,,,,,,132.5,137.5,145,,145,,,,,,145,1,Yes
Steve Boring,29,B,M,Raw,M_OR_AAPF,106.5,110,,,,,,182.5,187.5,-192.5,,187.5,,,,,,187.5,1,Yes
Kevin Schroeder,25,B,M,Raw,M_OR_AAPF,198.25,140+,,,,,,190,-205,205,,205,,,,,,205,1,Yes
Janet Sink,74,D,F,Raw,F_MR_7_AAPF,91.55,90+,,,,,,,,,,,87.5,92.5,95,,95,95,1,Yes
Linda Zenzen,62,D,F,Multi-ply,F_MEM_5_AAPF,94.4,90+,,,,,,,,,,,60,68,75,82.5,75,75,1,Yes
Mindy Fillmore,46,D,F,Raw,F_MR_2_AAPF,88.7,90,,,,,,,,,,,95,105,110,,110,110,1,Yes
Kristin Floreno,35,D,F,Raw,F_OR_AAPF,47.55,48,,,,,,,,,,,90,95,-100,,95,95,1,Yes
William Hosken,79,D,M,Raw,M_MR_8_AAPF,75.7,82.5,,,,,,,,,,,120,125,130,,130,130,1,Yes
William Allen #1,70,D,M,Raw,M_MR_7_AAPF,84.45,90,,,,,,,,,,,125,137.5,147.5,,147.5,147.5,1,Yes
Ron Panther,66,D,M,Raw,M_MR_6_AAPF,71.85,75,,,,,,,,,,,127.5,137.5,145,,145,145,1,Yes
Gary Dingle,66,D,M,Raw,M_MR_6_AAPF,93.15,100,,,,,,,,,,,257.5,265,-275,,265,265,1,Yes
James Jeurink,64,D,M,Multi-ply,M_MEM_5_AAPF,94.45,100,,,,,,,,,,,210,,-240,,210,210,1,Yes
Arthur Little,62,D,M,Raw,M_MR_5_AAPF,70.85,75,,,,,,,,,,,220,-235,,,220,220,1,Yes
John Brolley,55,D,M,Multi-ply,M_MEM_4_AAPF,96.5,100,,,,,,,,,,,192.5,205,210,,210,210,1,Yes
Chris Williams #1,58,D,M,Raw,M_MR_4_AAPF,89.55,90,,,,,,,,,,,152.5,160,-170,,160,160,1,Yes
Paul Coats,50,D,M,Raw,M_MR_3_AAPF,82.1,82.5,,,,,,,,,,,227.5,232.5,,,232.5,232.5,1,Yes
Humberto Sanchez,42,D,M,Raw,M_MR_1_AAPF,98.25,100,,,,,,,,,,,242.5,255,-260,,255,255,1,Yes
Jeron Roberson,35,D,M,Raw,M_SR_AAPF,59.8,60,,,,,,,,,,,145,155,165,,165,165,1,Yes
Billy Beard,38,D,M,Raw,M_SR_AAPF,88.55,90,,,,,,,,,,,230,250,255,,255,255,1,Yes
Mike Krieger,36,D,M,Raw,M_SR_AAPF,88.35,90,,,,,,,,,,,197.5,-207.5,-207.5,,197.5,197.5,2,Yes
Josh Becker,15,D,M,Raw,M_TR_1_AAPF,66.1,67.5,,,,,,,,,,,177.5,192.5,-200,,192.5,192.5,1,Yes
Arthur Little,62,D,M,Raw,M_OR_AAPF,70.85,75,,,,,,,,,,,220,-235,,,220,220,1,Yes
Jonathan Smith,27,D,M,Raw,M_OR_AAPF,98.25,100,,,,,,,,,,,230,,,,230,230,1,Yes
CJ Reed,37,SBD,M,Raw,M_SR_AAPF,81.2,82.5,157.5,162.5,170,,170,137.5,142.5,145,,145,212.5,222.5,-227.5,,222.5,537.5,1,Yes
Chris Bushue,39,SBD,M,Raw,M_SR_AAPF,90,90,157.5,165,170,,170,117.5,122.5,-125,,122.5,-217.5,217.5,225,,225,517.5,1,Yes
Robert Bain,35,SBD,M,Raw,M_SR_AAPF,107.45,110,272.5,287.5,-297.5,,287.5,150,160,,,160,295,-320,-320,,295,742.5,1,Yes
Zachary May,23,SBD,M,Single-ply,M_OES_AAPF,74.45,75,222.5,232.5,240,,240,135,145,152.5,,152.5,215,,,,215,607.5,1,Yes
James Leonhardt,38,SBD,M,Single-ply,M_OES_AAPF,74.5,75,190,-205,-205,,190,-165,-165,-165,,,,,,,,,DQ,Yes
Aaron Sarnovsky,32,SBD,M,Multi-ply,M_OEM_AAPF,81.65,82.5,-272.5,272.5,-292.5,,272.5,182.5,195,-205,,195,-255,255,-265,,255,722.5,1,Yes
Scott Kuderick,43,SBD,M,Multi-ply,M_OEM_AAPF,89.95,90,305,335,350,,350,172.5,182.5,187.5,,187.5,230,247.5,257.5,,257.5,795,1,Yes
Tevaughn Romel Lee,21,SBD,M,Multi-ply,M_OEM_AAPF,156,140+,350,365,375,,375,255,262.5,272.5,,272.5,295,-310,310,,310,957.5,1,Yes
Jay Semifero,25,SBD,M,Wraps,M_OCR_AAPF,73.05,75,220,232.5,240,,240,145,152.5,158,,158,220,232.5,237.5,,237.5,635.5,1,Yes
Daniel Thiel,30,SBD,M,Wraps,M_OCR_AAPF,73.3,75,210,227.5,240,,240,112.5,120,125,,125,235,257.5,-270,,257.5,622.5,2,Yes
Jonathan Chunn,28,SBD,M,Wraps,M_OCR_AAPF,82.05,82.5,275,-295,295,,295,132.5,140,150,,150,280,-310,-310,,280,725,1,Yes
Tom McNeill,34,SBD,M,Wraps,M_OCR_AAPF,82.2,82.5,-245,245,-260,,245,145,157.5,-165,,157.5,265,285,,,285,687.5,2,Yes
Derek Betts,27,SBD,M,Wraps,M_OCR_AAPF,80.75,82.5,217.5,227.5,232.5,,232.5,140,145,-147.5,,145,240,-250,-250,,240,617.5,3,Yes
Jason La Vigne,30,SBD,M,Wraps,M_OCR_AAPF,80.95,82.5,202.5,230,235,,235,-130,-130,-130,,,,,,,,,DQ,Yes
Alex Gordon,21,SBD,M,Wraps,M_OCR_AAPF,87.9,90,192.5,212.5,-227.5,,212.5,140,147.5,-155,,147.5,-227.5,227.5,242.5,,242.5,602.5,1,Yes
TJ Kropp,26,SBD,M,Wraps,M_OCR_AAPF,98.25,100,257.5,-272.5,272.5,,272.5,210,-217.5,-217.5,,210,-302.5,302.5,-307.5,,302.5,785,1,Yes
Chris Lester,25,SBD,M,Wraps,M_OCR_AAPF,98.1,100,235,-245,265,,265,170,177.5,-182.5,,177.5,282.5,300,307.5,,307.5,750,2,Yes
Guillermo Blanco,27,SBD,M,Wraps,M_OCR_AAPF,97.75,100,262.5,280,-292.5,,280,145,-157.5,162.5,,162.5,232.5,257.5,-265,,257.5,700,3,Yes
Kevin Long,29,SBD,M,Wraps,M_OCR_AAPF,90.35,100,187.5,202.5,215,,215,120,127.5,132.5,,132.5,200,215,-222.5,,215,562.5,4,Yes
Jeff Hunwick,29,SBD,M,Wraps,M_OCR_AAPF,99.25,100,217.5,-227.5,230,,230,122.5,-127.5,-127.5,,122.5,-210,-210,,,,,DQ,Yes
Zachary Gilfus,24,SBD,M,Wraps,M_OCR_AAPF,101.45,110,237.5,252.5,-265,,252.5,145,152.5,-157.5,,152.5,240,260,-272.5,,260,665,1,Yes
Alan Beavers,24,SBD,M,Wraps,M_OCR_AAPF,107.3,110,187.5,197.5,207.5,,207.5,147.5,160,175,,175,237.5,250,272.5,,272.5,655,2,Yes
Tatum Susberry,30,SBD,M,Wraps,M_OCR_AAPF,135.75,140,207.5,220,235,,235,170,185,-195,,185,207.5,227.5,250,,250,670,1,Yes
Tyrel Williams,25,SBD,M,Wraps,M_OCR_AAPF,171.05,140+,342.5,365,375,,375,227.5,235,240,,240,275,292.5,307.5,,307.5,922.5,1,Yes
Maclovio Hernandez,30,SBD,M,Raw,M_OR_AAPF,73.9,75,152.5,170,182.5,,182.5,112.5,125,137.5,,137.5,200,215,227.5,,227.5,547.5,1,Yes
Tyler Jones #1,18,SBD,M,Raw,M_OR_AAPF,74.45,75,170,180,185,,185,95,100,-107.5,,100,230,237.5,-265,,237.5,522.5,2,Yes
Angelo Fortino,24,SBD,M,Raw,M_OR_AAPF,79.55,82.5,217.5,237.5,245,,245,140,147.5,155,,155,275,290,305,,305,705,1,Yes
CJ Reed,37,SBD,M,Raw,M_OR_AAPF,81.2,82.5,157.5,162.5,170,,170,137.5,142.5,145,,145,212.5,222.5,-227.5,,222.5,537.5,2,Yes
Andrew Carroll,32,SBD,M,Raw,M_OR_AAPF,77.75,82.5,137.5,142.5,-147.5,,142.5,97.5,105,-115,,105,180,190,192.5,,192.5,440,3,Yes
Donovin Reyes,18,SBD,M,Raw,M_OR_AAPF,89.8,90,227.5,237.5,252.5,,252.5,137.5,147.5,152.5,,152.5,227.5,252.5,275,,275,680,1,Yes
Brandon Gregrow,27,SBD,M,Raw,M_OR_AAPF,89.35,90,187.5,200,210,,210,147.5,155,160,,160,220,232.5,-240,,232.5,602.5,2,Yes
Martin Adlen,25,SBD,M,Raw,M_OR_AAPF,88.85,90,190,200,205,,205,125,-132.5,-132.5,,125,210,222.5,225,,225,555,3,Yes
Calvin Seith,29,SBD,M,Raw,M_OR_AAPF,89.5,90,182.5,195,205,,205,127.5,137.5,-145,,137.5,192.5,212.5,-227.5,,212.5,555,4,Yes
Josh La Vigne,27,SBD,M,Raw,M_OR_AAPF,88.8,90,152.5,175,-192.5,,175,92.5,-107.5,-107.5,,92.5,152.5,175,-190,,175,442.5,5,Yes
Bryan Nee,27,SBD,M,Raw,M_OR_AAPF,98.8,100,257.5,267.5,-270,,267.5,150,-155,-155,,150,260,267.5,272.5,,272.5,690,1,Yes
Derek Roblyer,28,SBD,M,Raw,M_OR_AAPF,98.75,100,190,,,,190,170,,,,170,287.5,,,,287.5,647.5,2,Yes
Cleveland Rose,37,SBD,M,Raw,M_OR_AAPF,97.2,100,165,192.5,207.5,,207.5,97.5,112.5,127.5,,127.5,227.5,252.5,272.5,,272.5,607.5,3,Yes
Brian Madden,26,SBD,M,Raw,M_OR_AAPF,99.35,100,135,150,152.5,,152.5,110,125,-132.5,,125,152.5,167.5,-182.5,,167.5,445,4,Yes
Jonathon Smith,27,SBD,M,Raw,M_OR_AAPF,98.25,100,-210,-210,,,,-122.5,,,,,,,,,,,DQ,Yes
Robert Bain,35,SBD,M,Raw,M_OR_AAPF,107.45,110,272.5,287.5,-297.5,,287.5,150,160,,,160,295,-320,-320,,295,742.5,1,Yes
Michael Rooshanfekr,26,SBD,M,Raw,M_OR_AAPF,101.35,110,220,227.5,235,,235,175,187.5,195,,195,265,272.5,-280,,272.5,702.5,2,Yes
Jeffrey Calderone,26,SBD,M,Raw,M_OR_AAPF,105.75,110,217.5,230,242.5,,242.5,127.5,137.5,-142.5,,137.5,232.5,260,272.5,,272.5,652.5,3,Yes
